1,0.04
2,0
3,0.08
4,0
5,0.01
6,0.03
7,0.01
8,0
9,0
10,0
1,0.05
2,0
3,0.02
4,0.01
5,0.04
6,0
7,0.03
8,0.03
9,0
10,0
1,0.04
2,0
3,0.12
4,0
1,0.04
2,0.01
3,0.08
4,0.01
5,0.08
6,0.05
7,0
8,0.08
9,0.01
10,0.04
11,0
12,0.04
13,0.01
14,0.27
15,0
16,0.05
17,0
18,0.04
19,0
20,0.05
21,0
22,0.04
23,0.01
24,0.04
25,0.18
26,0
27,0.08
28,0.01
29,0.09
30,0
31,0.05
32,0
33,0.11
34,0
35,0.04
36,0
37,0.06
38,0.01
39,0.06
40,0.02
1,0.01299
2,0.007416
3,0.013137
4,0.013061
5,0.012028
6,0.013153
7,0.01315
8,0.01302
9,0.013083
10,0.013069
11,0.013132
12,0.013255
13,0.013237
14,0.013088
15,0.007649
16,0.013161
17,0.0131
18,0.013215
19,0.013226
20,0.012832
21,0.008586
22,0.013146
23,0.013078
24,0.013219
25,0.013313
26,0.013229
27,0.012785
28,0.009935
29,0.012949
30,0.00905
31,0.013159
32,0.013026
33,0.009979
34,0.013265
35,0.013065
36,0.013078
37,0.013216
38,0.011909
39,0.012976
40,0.012981
41,0.013063
42,0.011725
43,0.01324
44,0.013101
45,0.010012
46,0.013102
47,0.013034
48,0.011798
49,0.013203
50,0.013247
51,0.013097
52,0.008303
53,0.011341
54,0.013151
55,0.013157
56,0.013162
57,0.01322
58,0.013003
59,0.013086
60,0.012998
61,0.013107
62,0.013016
63,0.007682
64,0.009946
65,0.013126
66,0.013066
67,0.011946
68,0.0133
69,0.011947
70,0.013102
71,0.013002
72,0.013056
73,0.013048
74,0.013039
75,0.008733
76,0.013095
77,0.013072
78,0.013013
79,0.013042
80,0.01315
81,0.012002
82,0.013079
83,0.01301
84,0.013077
85,0.013138
86,0.013041
87,0.013115
88,0.013107
89,0.013014
90,0.012972
91,0.012985
92,0.013025
93,0.013128
94,0.013185
95,0.012944
96,0.008402
97,0.009991
98,0.012984
99,0.011935
100,0.013269
101,0.013034
102,0.012987
103,0.013005
104,0.013076
105,0.013105
106,0.013177
107,0.010006
108,0.013045
109,0.013035
110,0.013045
111,0.0117
112,0.007652
113,0.009126
114,0.013121
115,0.013075
116,0.013052
117,0.01303
118,0.013283
119,0.01318
120,0.013006
121,0.01279
122,0.00846
123,0.013024
124,0.013138
125,0.011959
126,0.008644
127,0.01312
128,0.013051
129,0.01292
130,0.01312
131,0.013092
132,0.008387
133,0.008683
134,0.01301
135,0.013075
136,0.013099
137,0.013042
138,0.008076
139,0.013015
140,0.012944
141,0.012993
142,0.013035
143,0.013159
144,0.013051
145,0.008587
146,0.013143
147,0.013039
148,0.013055
149,0.013187
150,0.008629
151,0.013089
152,0.012961
153,0.013014
154,0.013215
155,0.013046
156,0.008406
157,0.013217
158,0.013126
159,0.012995
160,0.013045
161,0.01311
162,0.013205
163,0.013153
164,0.011966
165,0.01308
166,0.013155
167,0.008406
168,0.013236
169,0.01307
170,0.013057
171,0.013007
172,0.012998
173,0.012924
174,0.009339
175,0.013172
176,0.012915
177,0.008425
178,0.012983
179,0.012976
180,0.013041
181,0.013182
182,0.013099
183,0.013044
184,0.013149
185,0.013084
186,0.013152
187,0.013142
188,0.012458
189,0.010129
190,0.009871
191,0.009062
192,0.013001
193,0.012939
194,0.008569
195,0.008524
196,0.012939
197,0.013079
198,0.013086
199,0.013149
200,0.01338
201,0.00864
202,0.013056
203,0.012031
204,0.013267
205,0.013164
206,0.013283
207,0.013148
208,0.012955
209,0.008347
210,0.01297
211,0.013095
212,0.013225
213,0.011915
214,0.013212
215,0.012882
216,0.012952
217,0.012994
218,0.013093
219,0.006234
220,0.012944
221,0.013019
222,0.013087
223,0.013022
224,0.013255
225,0.01312
226,0.013059
227,0.013053
228,0.013026
229,0.012973
230,0.011922
231,0.013235
232,0.013166
233,0.013054
234,0.013092
235,0.013121
236,0.01301
237,0.013155
238,0.013037
239,0.008607
240,0.012971
241,0.013018
242,0.013158
243,0.013041
244,0.009288
245,0.013061
246,0.012958
247,0.012972
248,0.013056
249,0.013069
250,0.009857
251,0.01311
252,0.013157
253,0.013034
254,0.013148
255,0.013028
256,0.013174
257,0.013144
258,0.013054
259,0.012959
260,0.013025
261,0.013157
262,0.013186
263,0.0132
264,0.013074
265,0.012998
266,0.013121
267,0.013023
268,0.013192
269,0.008621
270,0.013041
271,0.009888
272,0.013054
273,0.013106
274,0.013124
275,0.013168
276,0.013141
277,0.013029
278,0.01304
279,0.012965
280,0.013083
281,0.013167
282,0.013107
283,0.013068
284,0.008923
285,0.012996
286,0.013082
287,0.013159
288,0.013167
289,0.012994
290,0.013066
291,0.013069
292,0.013032
293,0.013039
294,0.01
295,0.008644
296,0.013012
297,0.012965
298,0.013038
299,0.013131
300,0.013131
301,0.013096
302,0.013166
303,0.013083
304,0.0131
305,0.013065
306,0.013247
307,0.008709
308,0.011902
309,0.013025
310,0.0084
311,0.01317
312,0.013211
313,0.01311
314,0.012836
315,0.008467
316,0.013006
317,0.013007
318,0.013199
319,0.013091
320,0.008727
321,0.013089
322,0.013172
323,0.012969
324,0.013054
325,0.012973
326,0.008623
327,0.012867
328,0.01297
329,0.013087
330,0.011911
331,0.01299
332,0.01324
333,0.012958
334,0.012966
335,0.013025
336,0.013057
337,0.011954
338,0.013154
339,0.013101
340,0.013114
341,0.01306
342,0.013138
343,0.012805
344,0.00883
345,0.008442
346,0.012989
347,0.007071
348,0.00389
349,0.003946
350,0.005486
351,0.013163
352,0.009839
353,0.0118
354,0.013047
355,0.013006
356,0.013207
357,0.008567
358,0.013008
359,0.013236
360,0.012972
361,0.013121
362,0.011954
363,0.011674
364,0.012989
365,0.013058
366,0.012987
367,0.012944
368,0.013234
369,0.007378
370,0.010079
371,0.013172
372,0.013
373,0.013018
374,0.012908
375,0.009056
376,0.008624
377,0.013053
378,0.011907
379,0.013024
380,0.013092
381,0.0132
382,0.011971
383,0.013068
384,0.013052
385,0.013007
386,0.013136
387,0.013072
388,0.013142
389,0.013106
390,0.013023
391,0.013148
392,0.013063
393,0.013169
394,0.01292
395,0.008613
396,0.013001
397,0.013045
398,0.013092
399,0.013138
400,0.013202
401,0.013169
402,0.01307
403,0.012784
404,0.009907
405,0.012973
406,0.013092
407,0.013117
408,0.01308
409,0.013138
410,0.013129
411,0.013109
412,0.013109
413,0.013127
414,0.013057
415,0.011779
416,0.013004
417,0.013034
418,0.013012
419,0.009324
420,0.013145
421,0.012873
422,0.009075
423,0.012986
424,0.01307
425,0.013213
426,0.011962
427,0.013099
428,0.011921
429,0.01303
430,0.013124
431,0.013135
432,0.00443
433,0.013112
434,0.013009
435,0.012878
436,0.009985
437,0.013161
438,0.00986
439,0.013071
440,0.013123
441,0.012989
442,0.013096
443,0.011725
444,0.004214
445,0.013077
446,0.013058
447,0.01305
448,0.013103
449,0.013043
450,0.013137
451,0.013213
452,0.013011
453,0.01294
454,0.013
455,0.012977
456,0.00989
457,0.013203
458,0.013135
459,0.013044
460,0.013044
461,0.013081
462,0.01304
463,0.01325
464,0.012835
465,0.009849
466,0.012986
467,0.013072
468,0.013142
469,0.012902
470,0.010028
471,0.012874
472,0.009891
473,0.01295
474,0.01297
475,0.013135
476,0.012974
477,0.008619
478,0.013005
479,0.01316
480,0.012935
481,0.00909
482,0.012951
483,0.009071
484,0.012939
485,0.012981
486,0.012915
487,0.008659
488,0.012972
489,0.008633
490,0.013081
491,0.013061
492,0.012933
493,0.011385
494,0.012983
495,0.008648
496,0.008692
497,0.008745
498,0.013071
499,0.013083
500,0.013173
1,0.012895
2,0.012607
3,0.008438
4,0.009748
5,0.006839
6,0.009336
7,0.012007
8,0.008507
9,0.009109
10,0.008021
1,0.01064
2,0.008617
3,0.012281
4,0.005876
5,0.007341
6,0.009808
7,0.008321
8,0.008135
9,0.013178
10,0.012947
11,0.012035
12,0.012114
13,0.00931
14,0.006556
15,0.00714
16,0.006497
17,0.007936
18,0.012173
19,0.008179
20,0.012799
1,0.01005
2,0.00919
3,0.003136
4,0.012316
5,0.01134
6,0.010437
7,0.008432
8,0.009682
9,0.013346
10,0.014837
11,0.009612
12,0.015108
13,0.006067
14,0.005375
15,0.007465
16,0.009865
17,0.006286
18,0.005163
19,0.002648
20,0.003385
1,0.01274
2,0.009495
3,0.010805
4,0.009785
5,0.006109
6,0.006588
7,0.012721
8,0.009686
9,0.007313
10,0.007848
11,0.002207
12,0.008056
13,0.006078
14,0.012801
15,0.006287
16,0.009318
17,0.00309
18,0.011607
19,0.006358
20,0.008882
21,0.008573
22,0.007092
23,0.002653
24,0.013968
25,0.011652
26,0.00304
27,0.00945
28,0.006346
29,0.008259
30,0.009707
31,0.015123
32,0.006311
33,0.00656
34,0.017578
35,0.010926
36,0.006311
37,0.012856
38,0.009643
39,0.011722
40,0.01194
41,0.005381
42,0.005534
43,0.002803
44,0.011119
45,0.015796
46,0.011694
47,0.003125
48,0.010952
49,0.016856
50,0.018644
1,0.021142
2,0.017593
3,0.027736
4,0.013838
5,0.017096
6,0.029875
7,0.014871
8,0.018522
9,0.017605
10,0.027734
11,0.031249
12,0.013098
13,0.020393
14,0.002364
15,0.016318
16,0.001698
17,0.001914
18,0.021149
19,0.006351
20,0.022836
21,0.006712
22,0.033193
23,0.020358
24,0.006208
25,0.013469
26,0.021854
27,0.002528
28,0.036465
29,0.026151
30,0.021098
31,0.001725
32,0.002403
33,0.036658
34,0.023956
35,0.033375
36,0.003471
37,0.025244
38,0.003489
39,0.026773
40,0.023603
41,0.024952
42,0.020061
43,0.003102
44,0.030474
45,0.021629
46,0.018982
47,0.012418
48,0.018178
49,0.014849
50,0.018914
51,0.024234
52,0.015338
53,0.029584
54,0.02164
55,0.020918
56,0.027127
57,0.025442
58,0.031774
59,0.02679
60,0.022151
61,0.002611
62,0.011453
63,0.009373
64,0.032337
65,0.018663
66,0.035901
67,0.032115
68,0.013878
69,0.017415
70,0.012808
71,0.031707
72,0.010789
73,0.015072
74,0.022324
75,0.006612
76,0.018156
77,0.032864
78,0.023884
79,0.028616
80,0.021747
81,0.033583
82,0.037447
83,0.022121
84,0.011888
85,0.021593
86,0.022053
87,0.020253
88,0.030673
89,0.023149
90,0.021269
91,0.018957
92,0.028451
93,0.03854
94,0.010792
95,0.018096
96,0.012917
97,0.026265
98,0.03216
99,0.0139
100,0.016657
101,0.013187
102,0.029894
103,0.009303
104,0.020423
105,0.015191
106,0.026958
107,0.018743
108,0.027937
109,0.018359
110,0.012785
111,0.01295
112,0.027944
113,0.02179
114,0.033149
115,0.013327
116,0.011839
117,0.006862
118,0.013235
119,0.021092
120,0.026857
121,0.021718
122,0.015323
123,0.0174
124,0.016335
125,0.024178
126,0.015567
127,0.024185
128,0.003684
129,0.027811
130,0.014965
131,0.009633
132,0.007783
133,0.009905
134,0.028859
135,0.026336
136,0.028631
137,0.014153
138,0.031304
139,0.031658
140,0.020233
141,0.018451
142,0.019902
143,0.026543
144,0.016606
145,0.015225
146,0.022951
147,0.008864
148,0.022733
149,0.027666
150,0.015567
151,0.026656
152,0.018635
153,0.022471
154,0.029502
155,0.01762
156,0.016724
157,0.032556
158,0.003902
159,0.020646
160,0.036353
161,0.009975
162,0.025039
163,0.011048
164,0.008981
165,0.028735
166,0.028626
167,0.026228
168,0.021891
169,0.008673
170,0.01288
171,0.025796
172,0.014495
173,0.028147
174,0.032698
175,0.014325
176,0.022907
177,0.027188
178,0.029476
179,0.025094
180,0.026518
181,0.033184
182,0.024975
183,0.023006
184,0.026732
185,0.01076
186,0.020064
187,0.021381
188,0.016715
189,0.032579
190,0.035049
191,0.012886
192,0.020747
193,0.024321
194,0.023694
195,0.0277
196,0.017445
197,0.022704
198,0.011121
199,0.016433
200,0.023243
201,0.006659
202,0.015184
203,0.01758
204,0.004154
205,0.024264
206,0.016641
207,0.022711
208,0.031483
209,0.034695
210,0.013729
211,0.020145
212,0.014802
213,0.007816
214,0.019398
215,0.030513
216,0.018026
217,0.023436
218,0.009889
219,0.027871
220,0.019911
221,0.016769
222,0.022514
223,0.002886
224,0.027152
225,0.017296
226,0.018173
227,0.030737
228,0.025663
229,0.020763
230,0.003185
231,0.025753
232,0.027571
233,0.013809
234,0.028021
235,0.017807
236,0.012477
237,0.020025
238,0.003967
239,0.019143
240,0.011603
241,0.004821
242,0.013073
243,0.009808
244,0.008506
245,0.014821
246,0.011907
247,0.005995
248,0.002259
249,0.002345
250,0.005845
1,0.009998
2,0.010573
3,0.004506
4,0.01239
5,0.011589
6,0.009069
7,0.006527
8,0.009543
9,0.003088
10,0.00525
11,0.008258
12,0.004478
13,0.002265
14,0.009947
15,0.009876
16,0.002188
17,0.009748
18,0.012827
19,0.015713
20,0.011284
21,0.006826
22,0.011046
23,0.005223
24,0.008662
25,0.008584
26,0.008713
27,0.008253
28,0.003896
29,0.00514
30,0.009694
31,0.003869
32,0.011157
33,0.006247
34,0.01284
35,0.004943
36,0.003609
37,0.009681
38,0.007814
39,0.008722
40,0.011192
41,0.015147
42,0.010793
43,0.008439
44,0.012358
45,0.003502
46,0.007205
47,0.009085
48,0.004981
49,0.004962
50,0.015041
51,0.009785
52,0.008383
53,0.010805
54,0.013564
55,0.008639
56,0.00444
57,0.007204
58,0.008318
59,0.005868
60,0.005193
61,0.008736
62,0.001537
63,0.004986
64,0.006391
65,0.008694
66,0.01106
67,0.005241
68,0.005912
69,0.012709
70,0.003233
71,0.007492
72,0.009844
73,0.009753
74,0.006283
75,0.004521
76,0.006255
77,0.005141
78,0.009775
79,0.009602
80,0.004308
81,0.016167
82,0.01089
83,0.012015
84,0.008322
85,0.017084
86,0.010443
87,0.005658
88,0.012864
89,0.008212
90,0.013041
91,0.00175
92,0.00723
93,0.007815
94,0.008602
95,0.002132
96,0.008827
97,0.009406
98,0.013348
99,0.004946
100,0.01907
101,0.002161
102,0.010934
103,0.011564
104,0.004437
105,0.009006
106,0.002531
107,0.005447
108,0.010437
109,0.003838
110,0.013889
111,0.008831
112,0.0096
113,0.009002
114,0.010949
115,0.010653
116,0.011775
117,0.009047
118,0.013091
119,0.011245
120,0.007785
121,0.005346
122,0.009866
123,0.015276
124,0.008819
125,0.009623
126,0.013724
127,0.01004
128,0.009104
129,0.011486
130,0.006384
131,0.006645
132,0.008064
133,0.002836
134,0.007934
135,0.010808
136,0.011456
137,0.017503
138,0.011446
139,0.005433
140,0.009552
141,0.010738
142,0.012312
143,0.002841
144,0.013674
145,0.008128
146,0.014808
147,0.012676
148,0.00746
149,0.010745
150,0.012494
151,0.004818
152,0.016618
153,0.005855
154,0.009227
155,0.010492
156,0.004385
157,0.008273
158,0.008241
159,0.008527
160,0.005452
161,0.010407
162,0.00376
163,0.011007
164,0.015048
165,0.014855
166,0.016079
167,0.010276
168,0.011495
169,0.010468
170,0.014599
171,0.008771
172,0.005189
173,0.00394
174,0.010225
175,0.009484
176,0.006954
177,0.010963
178,0.013324
179,0.010415
180,0.011182
181,0.011594
182,0.008013
183,0.004119
184,0.009316
185,0.01094
186,0.002287
187,0.006635
188,0.007882
189,0.011674
190,0.010968
191,0.006399
192,0.008829
193,0.002183
194,0.009009
195,0.002459
196,0.008613
197,0.01135
198,0.003645
199,0.009705
200,0.008673
201,0.008779
202,0.009398
203,0.003056
204,0.007414
205,0.003635
206,0.013001
207,0.00899
208,0.010985
209,0.009734
210,0.009241
211,0.015137
212,0.015619
213,0.008769
214,0.011232
215,0.008765
216,0.00305
217,0.006221
218,0.003085
219,0.009136
220,0.005861
221,0.010782
222,0.00974
223,0.013049
224,0.012911
225,0.003747
226,0.010791
227,0.011815
228,0.008592
229,0.002443
230,0.010324
231,0.011657
232,0.011789
233,0.004164
234,0.006305
235,0.00861
236,0.012971
237,0.006328
238,0.01476
239,0.005109
240,0.013392
241,0.00875
242,0.003757
243,0.009893
244,0.005781
245,0.008914
246,0.011672
247,0.006657
248,0.003358
249,0.009514
250,0.009885
1,0.005844
2,0.014108
3,0.0088
4,0.007246
5,0.009058
6,0.015748
7,0.005631
8,0.006241
9,0.009428
10,0.008715
11,0.008171
12,0.012924
13,0.004287
14,0.008335
15,0.013349
16,0.012812
17,0.010925
18,0.00228
19,0.010994
20,0.002795
21,0.009877
22,0.015462
23,0.012937
24,0.011277
25,0.015124
26,0.011155
27,0.007461
28,0.006674
29,0.006257
30,0.008886
31,0.002916
32,0.016265
33,0.010715
34,0.010718
35,0.013819
36,0.010118
37,0.012595
38,0.01144
39,0.011121
40,0.006419
41,0.009999
42,0.003472
43,0.007389
44,0.009207
45,0.00652
46,0.01391
47,0.012729
48,0.019476
49,0.006226
50,0.011084
51,0.021971
52,0.008322
53,0.010181
54,0.014249
55,0.012615
56,0.00975
57,0.009671
58,0.012825
59,0.010338
60,0.018573
61,0.010007
62,0.014574
63,0.012917
64,0.007129
65,0.011541
66,0.009704
67,0.008683
68,0.010787
69,0.012017
70,0.011645
71,0.005857
72,0.011725
73,0.006824
74,0.009386
75,0.004415
76,0.005309
77,0.0062
78,0.017706
79,0.009484
80,0.014562
81,0.012777
82,0.003424
83,0.007739
84,0.01163
85,0.003127
86,0.015099
87,0.01707
88,0.009939
89,0.013839
90,0.00357
91,0.005411
92,0.010988
93,0.011954
94,0.012712
95,0.00605
96,0.008811
97,0.00727
98,0.009597
99,0.009839
100,0.006258
101,0.012705
102,0.012432
103,0.003333
104,0.010836
105,0.01132
106,0.01304
107,0.01293
108,0.010741
109,0.012326
110,0.008766
111,0.009394
112,0.024005
113,0.00427
114,0.010144
115,0.008088
116,0.009666
117,0.011295
118,0.011984
119,0.00893
120,0.010397
121,0.009025
122,0.012898
123,0.008393
124,0.01168
125,0.011768
126,0.001807
127,0.009336
128,0.011586
129,0.011512
130,0.005121
131,0.012612
132,0.007061
133,0.015212
134,0.013706
135,0.01003
136,0.013733
137,0.010208
138,0.006168
139,0.016437
140,0.002131
141,0.007772
142,0.014752
143,0.012578
144,0.014433
145,0.009122
146,0.010104
147,0.006199
148,0.011614
149,0.009617
150,0.006288
151,0.007821
152,0.011928
153,0.007619
154,0.013427
155,0.009954
156,0.009537
157,0.003287
158,0.008106
159,0.010473
160,0.008178
161,0.012725
162,0.008863
163,0.008758
164,0.00957
165,0.00735
166,0.002711
167,0.009618
168,0.004969
169,0.00989
170,0.010894
171,0.008529
172,0.008624
173,0.012068
174,0.006329
175,0.004306
176,0.012765
177,0.009181
178,0.012934
179,0.004972
180,0.00705
181,0.015769
182,0.005132
183,0.00203
184,0.004072
185,0.007208
186,0.011889
187,0.012841
188,0.010038
189,0.00864
190,0.008993
191,0.003781
192,0.011197
193,0.013067
194,0.011615
195,0.009643
196,0.006473
197,0.008735
198,0.012021
199,0.011691
200,0.010595
201,0.011195
202,0.004934
203,0.013519
204,0.004232
205,0.012024
206,0.018781
207,0.00301
208,0.019006
209,0.01253
210,0.004676
211,0.009649
212,0.01586
213,0.012978
214,0.00909
215,0.008672
216,0.006007
217,0.012681
218,0.012934
219,0.011123
220,0.011681
221,0.011305
222,0.014956
223,0.008951
224,0.010394
225,0.009548
226,0.010232
227,0.014835
228,0.008015
229,0.003781
230,0.021064
231,0.011589
232,0.011562
233,0.002997
234,0.013444
235,0.015796
236,0.012339
237,0.00988
238,0.007707
239,0.00628
240,0.012993
241,0.009315
242,0.010676
243,0.009059
244,0.00634
245,0.009804
246,0.010203
247,0.00951
248,0.00882
249,0.013668
250,0.01169
251,0.011633
252,0.011981
253,0.003962
254,0.015231
255,0.015045
256,0.006671
257,0.007323
258,0.008513
259,0.012826
260,0.011888
261,0.005478
262,0.009862
263,0.014664
264,0.009716
265,0.006005
266,0.011169
267,0.011086
268,0.009033
269,0.01126
270,0.006703
271,0.012878
272,0.01494
273,0.012559
274,0.003781
275,0.013695
276,0.013272
277,0.006437
278,0.010763
279,0.004536
280,0.016054
281,0.00947
282,0.015829
283,0.01185
284,0.004764
285,0.012013
286,0.008503
287,0.010896
288,0.007238
289,0.006917
290,0.010519
291,0.005324
292,0.011929
293,0.021181
294,0.010719
295,0.009854
296,0.01076
297,0.010752
298,0.007022
299,0.010836
300,0.013153
301,0.012204
302,0.003032
303,0.013073
304,0.008605
305,0.006352
306,0.008186
307,0.011855
308,0.006432
309,0.010388
310,0.011377
311,0.010757
312,0.007366
313,0.0122
314,0.005461
315,0.006621
316,0.003813
317,0.008495
318,0.012366
319,0.01047
320,0.003767
321,0.008555
322,0.006445
323,0.01156
324,0.009803
325,0.006809
326,0.007723
327,0.013218
328,0.012681
329,0.009343
330,0.005736
331,0.015397
332,0.004773
333,0.008805
334,0.010523
335,0.006387
336,0.010861
337,0.005416
338,0.005598
339,0.012789
340,0.004021
341,0.01193
342,0.010923
343,0.008462
344,0.003076
345,0.005062
346,0.008303
347,0.01279
348,0.011014
349,0.011792
350,0.00937
351,0.013591
352,0.008893
353,0.006721
354,0.009649
355,0.013934
356,0.012796
357,0.00971
358,0.006308
359,0.007998
360,0.010012
361,0.011497
362,0.006284
363,0.01124
364,0.003235
365,0.012191
366,0.00412
367,0.008493
368,0.00179
369,0.00603
370,0.011024
371,0.005691
372,0.005744
373,0.011232
374,0.009829
375,0.012226
376,0.006356
377,0.006047
378,0.006279
379,0.008583
380,0.01266
381,0.007236
382,0.012639
383,0.003047
384,0.014939
385,0.009583
386,0.01326
387,0.012702
388,0.009757
389,0.011259
390,0.008417
391,0.011096
392,0.008228
393,0.007355
394,0.008788
395,0.01572
396,0.011754
397,0.013064
398,0.008285
399,0.009868
400,0.012531
401,0.015875
402,0.008153
403,0.00956
404,0.008747
405,0.010158
406,0.011537
407,0.011635
408,0.010574
409,0.012881
410,0.01294
411,0.009666
412,0.010692
413,0.013538
414,0.009742
415,0.011551
416,0.003979
417,0.013713
418,0.00903
419,0.012875
420,0.006412
421,0.002149
422,0.008272
423,0.01154
424,0.002144
425,0.012392
426,0.008555
427,0.004978
428,0.00219
429,0.01193
430,0.010845
431,0.013051
432,0.015051
433,0.010809
434,0.009071
435,0.007687
436,0.006657
437,0.008191
438,0.015467
439,0.012149
440,0.010854
441,0.011434
442,0.006159
443,0.013979
444,0.013072
445,0.015058
446,0.014683
447,0.010726
448,0.006928
449,0.011491
450,0.009802
1,0.01076
2,0.013329
3,0.007599
4,0.009906
5,0.007307
6,0.00762
7,0.007874
8,0.008619
9,0.007381
10,0.009852
11,0.006677
12,0.008208
13,0.007839
14,0.007156
15,0.008183
16,0.007801
17,0.008048
18,0.008667
19,0.008716
20,0.010317
21,0.009595
22,0.006983
23,0.007643
24,0.009466
25,0.019175
26,0.010092
27,0.006833
28,0.007267
29,0.009732
30,0.009
31,0.008981
32,0.008758
33,0.007104
34,0.006667
35,0.007726
36,0.009197
37,0.009542
38,0.007552
39,0.007827
40,0.013652
41,0.010301
42,0.007501
43,0.009262
44,0.009234
45,0.007761
46,0.00744
47,0.007651
48,0.010801
49,0.00893
50,0.006782
51,0.010401
52,0.008045
53,0.010119
54,0.008755
55,0.00663
56,0.008638
57,0.010201
58,0.007418
59,0.007416
60,0.00755
61,0.007067
62,0.008932
63,0.011603
64,0.011797
65,0.007328
66,0.009559
67,0.011047
68,0.007453
69,0.00721
70,0.007596
71,0.008775
72,0.014103
73,0.006651
74,0.008119
75,0.007485
76,0.00769
77,0.010861
78,0.011699
79,0.009807
80,0.011003
81,0.009782
82,0.009349
83,0.009637
84,0.009726
85,0.011435
86,0.009237
87,0.007557
88,0.016814
89,0.013196
90,0.011018
91,0.011357
92,0.012356
93,0.010345
94,0.00873
95,0.00845
96,0.007163
97,0.010522
98,0.0122
99,0.01007
100,0.011169
101,0.00995
102,0.008834
103,0.008558
104,0.009889
105,0.013566
106,0.013754
107,0.007979
108,0.008403
109,0.010887
110,0.014522
111,0.007464
112,0.008093
113,0.008374
114,0.008624
115,0.008487
116,0.008414
117,0.007503
118,0.007507
119,0.008022
120,0.006213
121,0.007924
122,0.009931
123,0.008255
124,0.009704
125,0.008831
126,0.007818
127,0.007702
128,0.007179
129,0.007369
130,0.008091
131,0.010094
132,0.008913
133,0.008818
134,0.014217
135,0.012141
136,0.01068
137,0.011498
138,0.01133
139,0.00921
140,0.009074
141,0.009979
142,0.007677
143,0.007267
144,0.006736
145,0.014044
146,0.009877
147,0.007867
148,0.011558
149,0.011545
150,0.00888
151,0.007967
152,0.007793
153,0.007789
154,0.009494
155,0.008133
156,0.006952
157,0.006833
158,0.007579
159,0.010639
160,0.01025
161,0.009771
162,0.00943
163,0.009123
164,0.007891
165,0.008149
166,0.028412
167,0.020948
168,0.007176
169,0.007837
170,0.00758
171,0.00789
172,0.007208
173,0.007581
174,0.008885
175,0.00949
176,0.007168
177,0.007193
178,0.008145
179,0.026955
180,0.024044
181,0.007348
182,0.007295
183,0.007274
184,0.008609
185,0.00874
186,0.006836
187,0.006783
188,0.007984
189,0.009121
190,0.009897
191,0.010599
192,0.010703
193,0.010467
194,0.009944
195,0.009037
196,0.007657
197,0.008525
198,0.009682
199,0.011167
200,0.012368
201,0.006816
202,0.008093
203,0.011564
204,0.010175
205,0.010264
206,0.009697
207,0.010088
208,0.00961
209,0.010426
210,0.00815
211,0.006564
212,0.007486
213,0.00782
214,0.008201
215,0.009849
216,0.007363
217,0.009994
218,0.007646
219,0.00747
220,0.007363
221,0.007944
222,0.009091
223,0.009662
224,0.00915
225,0.008678
226,0.00726
227,0.007361
228,0.008152
229,0.010704
230,0.008335
231,0.009085
232,0.010019
233,0.009665
234,0.008827
235,0.009407
236,0.007189
237,0.00737
238,0.008414
239,0.007443
240,0.007669
241,0.008165
242,0.010426
243,0.007229
244,0.006927
245,0.009428
246,0.014775
247,0.008093
248,0.007216
249,0.007356
250,0.008187
251,0.009507
252,0.009129
253,0.008929
254,0.00871
255,0.007027
256,0.006657
257,0.007904
258,0.008553
259,0.005287
260,0.007269
261,0.007003
262,0.00771
263,0.007707
264,0.008091
265,0.008569
266,0.008616
267,0.009179
268,0.006722
269,0.010507
270,0.010068
271,0.010427
272,0.00923
273,0.013381
274,0.00782
275,0.008135
276,0.006748
277,0.006815
278,0.007955
279,0.008046
280,0.007422
281,0.007334
282,0.005434
283,0.00804
284,0.006697
285,0.007937
286,0.008493
287,0.008812
288,0.009219
289,0.009401
290,0.009183
291,0.007442
292,0.008637
293,0.007118
294,0.007408
295,0.009416
296,0.010671
297,0.009408
298,0.01406
299,0.009297
300,0.008409
301,0.0082
302,0.008439
303,0.00699
304,0.007091
305,0.007817
306,0.014253
307,0.013714
308,0.0146
309,0.009763
310,0.006741
311,0.007305
312,0.009182
313,0.009453
314,0.008867
315,0.007544
316,0.007523
317,0.006888
318,0.007322
319,0.010987
320,0.009189
321,0.01595
322,0.009795
323,0.011174
324,0.002698
325,0.013584
326,0.010577
327,0.010376
328,0.016318
329,0.013168
330,0.01364
331,0.009888
332,0.010395
333,0.008935
334,0.008763
335,0.010521
336,0.009935
337,0.007151
338,0.00822
339,0.006838
340,0.008528
341,0.007275
342,0.009149
343,0.011502
344,0.011297
345,0.009779
346,0.009548
347,0.01344
348,0.013355
349,0.015638
350,0.009254
351,0.007529
352,0.006732
353,0.007261
354,0.007795
355,0.007747
356,0.008963
357,0.008645
358,0.009167
359,0.009249
360,0.009165
361,0.007521
362,0.006793
363,0.008458
364,0.00708
365,0.008291
366,0.008533
367,0.006809
368,0.007119
369,0.011314
370,0.007554
371,0.007555
372,0.007694
373,0.008712
374,0.007867
375,0.009558
376,0.011949
377,0.01175
378,0.01057
379,0.016066
380,0.010227
381,0.010704
382,0.008667
383,0.008615
384,0.008894
385,0.008903
386,0.008659
387,0.008233
388,0.007468
389,0.008829
390,0.006988
391,0.007745
392,0.011522
393,0.006698
394,0.007162
395,0.009057
396,0.008715
397,0.008879
398,0.009021
399,0.008882
400,0.008274
401,0.00803
402,0.010301
403,0.007908
404,0.009451
405,0.007627
406,0.011458
407,0.007185
408,0.007564
409,0.010072
410,0.010047
411,0.011772
412,0.011195
413,0.008643
414,0.007699
415,0.011888
416,0.008693
417,0.006923
418,0.007163
419,0.008258
420,0.009003
421,0.013651
422,0.011163
423,0.009248
424,0.015195
425,0.014797
426,0.0097
427,0.007867
428,0.00746
429,0.015842
430,0.008979
431,0.006978
432,0.00737
433,0.007733
434,0.008329
435,0.009503
436,0.008279
437,0.007817
438,0.008254
439,0.005881
440,0.008971
441,0.006721
442,0.009002
443,0.011099
444,0.010557
445,0.009538
446,0.009365
447,0.009529
448,0.00818
449,0.013098
450,0.008773
451,0.008425
452,0.005456
453,0.00582
454,0.008386
455,0.009873
456,0.009891
457,0.010784
458,0.010843
459,0.011476
460,0.010815
461,0.010899
462,0.010527
463,0.013666
464,0.009058
465,0.008877
466,0.00715
467,0.007241
468,0.007972
469,0.009426
470,0.016094
471,0.013187
472,0.011059
473,0.008549
474,0.0086
475,0.008608
476,0.009186
477,0.009298
478,0.008708
479,0.008774
480,0.008892
481,0.009389
482,0.007314
483,0.007296
484,0.007181
485,0.006927
486,0.01133
487,0.006847
488,0.012591
489,0.013353
490,0.016513
491,0.009184
492,0.008395
493,0.006789
494,0.014448
495,0.011347
496,0.007201
497,0.008446
498,0.010295
499,0.008747
500,0.008015
501,0.009326
502,0.008817
503,0.007604
504,0.008
505,0.008669
506,0.00739
507,0.010853
508,0.01303
509,0.011299
510,0.010871
511,0.011391
512,0.010252
513,0.009105
514,0.008708
515,0.007533
516,0.007814
517,0.00829
518,0.010619
519,0.009614
520,0.020893
521,0.010159
522,0.011669
523,0.00916
524,0.010852
525,0.006971
526,0.006856
527,0.007698
528,0.008045
529,0.009684
530,0.01281
531,0.015245
532,0.008037
533,0.007465
534,0.00892
535,0.008973
536,0.009263
537,0.008089
538,0.007945
539,0.007622
540,0.007598
541,0.00795
542,0.007261
543,0.009492
544,0.010003
545,0.008114
546,0.007765
547,0.008385
548,0.011439
549,0.013316
550,0.015559
551,0.010768
552,0.006855
553,0.007407
554,0.00942
555,0.007509
556,0.009706
557,0.009924
558,0.009413
559,0.007123
560,0.006747
561,0.007052
562,0.010307
563,0.008056
564,0.00952
565,0.00836
566,0.008638
567,0.009088
568,0.009053
569,0.008993
570,0.010186
571,0.005774
572,0.007724
573,0.006451
574,0.007681
575,0.009887
576,0.011256
577,0.008524
578,0.007266
579,0.007575
580,0.007166
581,0.010374
582,0.013327
583,0.01286
584,0.008307
585,0.00923
586,0.010822
587,0.007985
588,0.007325
589,0.007221
590,0.007916
591,0.006784
592,0.007853
593,0.009418
594,0.007994
595,0.007257
596,0.0068
597,0.007839
598,0.012203
599,0.008713
600,0.008049
601,0.007927
602,0.007884
603,0.007214
604,0.00686
605,0.006883
606,0.006838
607,0.007426
608,0.007883
609,0.009639
610,0.00706
611,0.008798
612,0.009275
613,0.009473
614,0.00968
615,0.010789
616,0.009493
617,0.007694
618,0.011567
619,0.014779
620,0.015126
621,0.012249
622,0.009642
623,0.007755
624,0.008624
625,0.010141
626,0.010322
627,0.008829
628,0.008317
629,0.010024
630,0.015105
631,0.013178
632,0.006449
633,0.007139
634,0.007478
635,0.009722
636,0.007535
637,0.007089
638,0.007259
639,0.010092
640,0.007367
641,0.007365
642,0.00763
643,0.007724
644,0.010906
645,0.006874
646,0.0078
647,0.007714
648,0.007659
649,0.006664
650,0.007001
651,0.008394
652,0.010223
653,0.009128
654,0.009848
655,0.011678
656,0.010561
657,0.007444
658,0.01014
659,0.00774
660,0.007697
661,0.007393
662,0.008608
663,0.009139
664,0.012289
665,0.011081
666,0.009445
667,0.010947
668,0.00967
669,0.009777
670,0.008229
671,0.010923
672,0.009651
673,0.006777
674,0.011024
675,0.009826
676,0.007711
677,0.007585
678,0.007261
679,0.007826
680,0.010157
681,0.013291
682,0.009508
683,0.01459
684,0.011693
685,0.006852
686,0.006781
687,0.008557
688,0.00936
689,0.007458
690,0.007125
691,0.007446
692,0.009783
693,0.007719
694,0.006754
695,0.007083
696,0.011046
697,0.009652
698,0.00791
699,0.010721
700,0.009113
701,0.009471
702,0.009211
703,0.00715
704,0.006806
705,0.007622
706,0.008981
707,0.008144
708,0.011318
709,0.009469
710,0.01078
711,0.010649
712,0.007441
713,0.006614
714,0.007176
715,0.009252
716,0.01105
717,0.010243
718,0.009419
719,0.009863
720,0.010555
721,0.00685
722,0.007175
723,0.008091
724,0.008839
725,0.009263
726,0.010765
727,0.009188
728,0.008736
729,0.009055
730,0.010028
731,0.009475
732,0.019345
733,0.013744
734,0.009198
735,0.009356
736,0.00785
737,0.007256
738,0.009211
739,0.007993
740,0.007839
741,0.006715
742,0.00749
743,0.009834
744,0.007692
745,0.007597
746,0.006446
747,0.008581
748,0.007399
749,0.007527
750,0.009245
751,0.009595
752,0.009836
753,0.007627
754,0.007452
755,0.007866
756,0.008388
757,0.008997
758,0.011072
759,0.008707
760,0.01026
761,0.008205
762,0.008985
763,0.009289
764,0.00902
765,0.009011
766,0.009027
767,0.006851
768,0.008041
769,0.007358
770,0.01364
771,0.006656
772,0.012111
773,0.008569
774,0.006754
775,0.007428
776,0.013909
777,0.014194
778,0.011489
779,0.011317
780,0.010408
781,0.006319
782,0.008558
783,0.008415
784,0.009948
785,0.008677
786,0.009092
787,0.008496
788,0.008558
789,0.008273
790,0.007201
791,0.00984
792,0.010321
793,0.006233
794,0.006681
795,0.013407
796,0.00846
797,0.014567
798,0.012309
799,0.008617
800,0.008823
801,0.008834
802,0.009429
803,0.007566
804,0.007919
805,0.010755
806,0.007941
807,0.007841
808,0.007077
809,0.009738
810,0.009174
811,0.006943
812,0.006832
813,0.00804
814,0.010166
815,0.010051
816,0.008574
817,0.008187
818,0.009339
819,0.007821
820,0.009072
821,0.009387
822,0.00766
823,0.007201
824,0.007189
825,0.008921
826,0.007324
827,0.007569
828,0.006945
829,0.007554
830,0.008015
831,0.008492
832,0.009271
833,0.009041
834,0.008621
835,0.007504
836,0.009243
837,0.009221
838,0.009608
839,0.011149
840,0.009954
841,0.008449
842,0.009151
843,0.014707
844,0.008221
845,0.007295
846,0.007672
847,0.01087
848,0.009447
849,0.009437
850,0.007237
851,0.007749
852,0.007448
853,0.007362
854,0.007739
855,0.007468
856,0.00697
857,0.0068
858,0.010416
859,0.016906
860,0.008353
861,0.006813
862,0.007206
863,0.008189
864,0.009555
865,0.007718
866,0.00776
867,0.007736
868,0.011128
869,0.010859
870,0.009451
871,0.00793
872,0.015791
873,0.007379
874,0.007586
875,0.007942
876,0.007729
877,0.007897
878,0.007883
879,0.006997
880,0.007328
881,0.010406
882,0.009492
883,0.0102
884,0.009874
885,0.010955
886,0.010715
887,0.0055
888,0.009316
889,0.010067
890,0.012124
891,0.014303
892,0.013583
893,0.01303
894,0.007763
895,0.012374
896,0.01499
897,0.008874
898,0.00818
899,0.0103
900,0.009286
901,0.011096
902,0.007856
903,0.007487
904,0.007362
905,0.007696
906,0.009908
907,0.009102
908,0.007187
909,0.007548
910,0.008566
911,0.010655
912,0.012836
913,0.015416
914,0.015446
915,0.012134
916,0.007498
917,0.006805
918,0.010953
919,0.009674
920,0.009021
921,0.009147
922,0.008204
923,0.008073
924,0.008637
925,0.007717
926,0.008626
927,0.009664
928,0.007822
929,0.009975
930,0.007197
931,0.007221
932,0.010227
933,0.01042
934,0.00983
935,0.007655
936,0.006882
937,0.007106
938,0.010185
939,0.007368
940,0.007301
941,0.007494
942,0.008468
943,0.00716
944,0.009023
945,0.008252
946,0.009811
947,0.009349
948,0.007948
949,0.007016
950,0.00743
951,0.00922
952,0.007849
953,0.007079
954,0.006908
955,0.007797
956,0.008952
957,0.00913
958,0.008574
959,0.009965
960,0.008226
961,0.010515
962,0.008989
963,0.011875
964,0.017614
965,0.015099
966,0.015906
967,0.009343
968,0.007342
969,0.009627
970,0.007785
971,0.014187
972,0.009012
973,0.00693
974,0.006789
975,0.007031
976,0.009002
977,0.008425
978,0.008163
979,0.009082
980,0.006071
981,0.007583
982,0.008915
983,0.007951
984,0.008483
985,0.008678
986,0.008853
987,0.009247
988,0.009952
989,0.009085
990,0.008919
991,0.009869
992,0.009351
993,0.008019
994,0.013764
995,0.011664
996,0.011957
997,0.009496
998,0.010676
999,0.008589
1000,0.008215
1001,0.00799
1002,0.007876
1003,0.008416
1004,0.007349
1005,0.005108
1006,0.009094
1007,0.008513
1008,0.009465
1009,0.009326
1010,0.008636
1011,0.009217
1012,0.009843
1013,0.012218
1014,0.006695
1015,0.007415
1016,0.007552
1017,0.009263
1018,0.008868
1019,0.009546
1020,0.01015
1021,0.00706
1022,0.007234
1023,0.008448
1024,0.007865
1025,0.007191
1026,0.007978
1027,0.008665
1028,0.009573
1029,0.010947
1030,0.010492
1031,0.006676
1032,0.007549
1033,0.011739
1034,0.007216
1035,0.007453
1036,0.008315
1037,0.009415
1038,0.01127
1039,0.010429
1040,0.009653
1041,0.006891
1042,0.007643
1043,0.007698
1044,0.007043
1045,0.009497
1046,0.008015
1047,0.00992
1048,0.009288
1049,0.008715
1050,0.008444
1051,0.008145
1052,0.008376
1053,0.008223
1054,0.011047
1055,0.006492
1056,0.009156
1057,0.006962
1058,0.008183
1059,0.007541
1060,0.00858
1061,0.009292
1062,0.008948
1063,0.007478
1064,0.008405
1065,0.006755
1066,0.007346
1067,0.010347
1068,0.008313
1069,0.011256
1070,0.01361
1071,0.009463
1072,0.007002
1073,0.008458
1074,0.013061
1075,0.012827
1076,0.008801
1077,0.006987
1078,0.00849
1079,0.00812
1080,0.008371
1081,0.008854
1082,0.009569
1083,0.007217
1084,0.007488
1085,0.007025
1086,0.007955
1087,0.010362
1088,0.009785
1089,0.007363
1090,0.007682
1091,0.010749
1092,0.01078
1093,0.011121
1094,0.012077
1095,0.012104
1096,0.007709
1097,0.008525
1098,0.008691
1099,0.010897
1100,0.01048
1101,0.006595
1102,0.007245
1103,0.009739
1104,0.0083
1105,0.006443
1106,0.005722
1107,0.010589
1108,0.009457
1109,0.009091
1110,0.007869
1111,0.008101
1112,0.007524
1113,0.007895
1114,0.00795
1115,0.008941
1116,0.006616
1117,0.00743
1118,0.007033
1119,0.008307
1120,0.010116
1121,0.00632
1122,0.011539
1123,0.009418
1124,0.010681
1125,0.009779
1126,0.00928
1127,0.00709
1128,0.00712
1129,0.007798
1130,0.007686
1131,0.008123
1132,0.009864
1133,0.016298
1134,0.015613
1135,0.012054
1136,0.006647
1137,0.007699
1138,0.008685
1139,0.006944
1140,0.006978
1141,0.00852
1142,0.015457
1143,0.013233
1144,0.014016
1145,0.008611
1146,0.007796
1147,0.009521
1148,0.012748
1149,0.008996
1150,0.007994
1151,0.010368
1152,0.009456
1153,0.010055
1154,0.007915
1155,0.011851
1156,0.013553
1157,0.013929
1158,0.009606
1159,0.009422
1160,0.013927
1161,0.013216
1162,0.011288
1163,0.010088
1164,0.009495
1165,0.010821
1166,0.010045
1167,0.009062
1168,0.010324
1169,0.010379
1170,0.007432
1171,0.006921
1172,0.007797
1173,0.013199
1174,0.01281
1175,0.010634
1176,0.008223
1177,0.010339
1178,0.014616
1179,0.010132
1180,0.008454
1181,0.006983
1182,0.006696
1183,0.007067
1184,0.008873
1185,0.008768
1186,0.009391
1187,0.00723
1188,0.005816
1189,0.01375
1190,0.009501
1191,0.01035
1192,0.010466
1193,0.009919
1194,0.009406
1195,0.009228
1196,0.008435
1197,0.006883
1198,0.009026
1199,0.006651
1200,0.008709
1201,0.008267
1202,0.009279
1203,0.007899
1204,0.013044
1205,0.009129
1206,0.010569
1207,0.012818
1208,0.009516
1209,0.007163
1210,0.006874
1211,0.009275
1212,0.007841
1213,0.008997
1214,0.008328
1215,0.010252
1216,0.009899
1217,0.011148
1218,0.007562
1219,0.007141
1220,0.007281
1221,0.008479
1222,0.013006
1223,0.010128
1224,0.01004
1225,0.008199
1226,0.007748
1227,0.007147
1228,0.007829
1229,0.009926
1230,0.013123
1231,0.010251
1232,0.009383
1233,0.009648
1234,0.009613
1235,0.007682
1236,0.006755
1237,0.007088
1238,0.008014
1239,0.014997
1240,0.009367
1241,0.009267
1242,0.015035
1243,0.00828
1244,0.009377
1245,0.007472
1246,0.007624
1247,0.009111
1248,0.008796
1249,0.005112
1250,0.006063
