0,0.01
1,0
2,0.04
3,0
4,0.01
5,0
6,0.04
7,0.01
8,0.05
9,0
0,0
1,0.01
2,0.05
3,0
4,0.04
5,0
6,0.03
7,0
8,0.04
9,0
0,0.05
1,0
2,0.03
3,0
0,0.08
1,0.01
2,0.23
3,0
4,0.05
5,0
6,0.15
7,0.01
8,0.18
9,0
10,0.13
11,0
12,0.05
13,0.04
14,0
15,0.05
16,0
17,0.27
18,0
19,0.04
20,0.05
21,0
22,0.05
23,0
24,0.08
25,0.05
26,0
27,0.05
28,0
29,0.04
30,0
31,0.04
32,0
33,0.26
34,0
35,0.12
36,0
37,0.05
38,0
39,0.05
0,0.041862
1,0.032697
2,0.030242
3,0.030416
4,0.028891
5,0.02861
6,0.030444
7,0.028804
8,0.030389
9,0.030241
10,0.028498
11,0.030281
12,0.032293
13,0.03208
14,0.031981
15,0.031942
16,0.032056
17,0.032179
18,0.028866
19,0.030391
20,0.032098
21,0.029097
22,0.032171
23,0.030931
24,0.026556
25,0.030905
26,0.032107
27,0.032007
28,0.032082
29,0.029885
30,0.030828
31,0.032078
32,0.032223
33,0.030837
34,0.026549
35,0.031903
36,0.032139
37,0.029686
38,0.029716
39,0.03217
40,0.029705
41,0.02989
42,0.032269
43,0.029149
44,0.025328
45,0.032046
46,0.02971
47,0.029869
48,0.032267
49,0.029882
50,0.029639
51,0.032217
52,0.028657
53,0.029867
54,0.032036
55,0.028493
56,0.029643
57,0.031044
58,0.029873
59,0.029622
60,0.031958
61,0.029772
62,0.030121
63,0.031015
64,0.029658
65,0.029655
66,0.032157
67,0.029869
68,0.027928
69,0.032064
70,0.029601
71,0.029646
72,0.032062
73,0.02911
74,0.029767
75,0.032075
76,0.029698
77,0.029574
78,0.032096
79,0.025223
80,0.029722
81,0.030274
82,0.029654
83,0.029787
84,0.030578
85,0.026874
86,0.029515
87,0.023293
88,0.025342
89,0.02535
90,0.032281
91,0.027986
92,0.029572
93,0.027963
94,0.028573
95,0.022619
96,0.032162
97,0.025439
98,0.028002
99,0.032061
100,0.027912
101,0.027972
102,0.032209
103,0.027953
104,0.02688
105,0.032152
106,0.028458
107,0.028094
108,0.029016
109,0.028348
110,0.027377
111,0.03208
112,0.025433
113,0.028535
114,0.029165
115,0.028461
116,0.029618
117,0.032283
118,0.02848
119,0.029715
120,0.032087
121,0.028402
122,0.027906
123,0.032017
124,0.028456
125,0.029826
126,0.032474
127,0.026772
128,0.029548
129,0.030872
130,0.024324
131,0.029689
132,0.029114
133,0.026152
134,0.028443
135,0.02818
136,0.026723
137,0.025176
138,0.031935
139,0.025158
140,0.029663
141,0.032039
142,0.02311
143,0.028499
144,0.03046
145,0.0268
146,0.029631
147,0.032171
148,0.028481
149,0.029695
150,0.029021
151,0.028506
152,0.029672
153,0.031012
154,0.024022
155,0.025565
156,0.032007
157,0.028712
158,0.029608
159,0.032299
160,0.025329
161,0.029703
162,0.032158
163,0.025207
164,0.026101
165,0.027659
166,0.028421
167,0.029729
168,0.03028
169,0.028461
170,0.025601
171,0.030479
172,0.028493
173,0.027205
174,0.026036
175,0.026971
176,0.02971
177,0.030657
178,0.028499
179,0.028978
180,0.03036
181,0.026859
182,0.029028
183,0.030481
184,0.02681
185,0.028492
186,0.030343
187,0.026225
188,0.023373
189,0.032441
190,0.023827
191,0.024492
192,0.02519
193,0.027045
194,0.02525
195,0.03228
196,0.025241
197,0.029766
198,0.032274
199,0.028699
200,0.029665
201,0.030321
202,0.028475
203,0.026291
204,0.027786
205,0.028666
206,0.026198
207,0.032195
208,0.027429
209,0.028013
210,0.0278
211,0.026298
212,0.019209
213,0.024533
214,0.026721
215,0.029128
216,0.032101
217,0.026826
218,0.029731
219,0.025194
220,0.025668
221,0.028003
222,0.024523
223,0.027682
224,0.025245
225,0.032425
226,0.027729
227,0.029758
228,0.031939
229,0.027701
230,0.029119
231,0.032216
232,0.027723
233,0.029691
234,0.027484
235,0.028442
236,0.02965
237,0.032432
238,0.028698
239,0.029813
240,0.031904
241,0.028341
242,0.029663
243,0.031134
244,0.024505
245,0.029739
246,0.031922
247,0.028384
248,0.029734
249,0.032215
250,0.028503
251,0.029577
252,0.030332
253,0.02838
254,0.026423
255,0.012906
256,0.02086
257,0.029651
258,0.028017
259,0.028452
260,0.028567
261,0.027268
262,0.028458
263,0.02617
264,0.027368
265,0.028478
266,0.029662
267,0.029463
268,0.022343
269,0.018472
270,0.030601
271,0.025951
272,0.029752
273,0.026088
274,0.017971
275,0.029878
276,0.025334
277,0.028494
278,0.024631
279,0.029137
280,0.028399
281,0.029565
282,0.030389
283,0.024262
284,0.020478
285,0.030278
286,0.028365
287,0.029687
288,0.027434
289,0.028431
290,0.029637
291,0.03026
292,0.028383
293,0.024202
294,0.025854
295,0.028463
296,0.025797
297,0.030435
298,0.028436
299,0.024263
300,0.031111
301,0.026009
302,0.029764
303,0.027674
304,0.025307
305,0.029785
306,0.027748
307,0.028612
308,0.029155
309,0.032063
310,0.028571
311,0.026111
312,0.032229
313,0.02544
314,0.023483
315,0.032214
316,0.024599
317,0.029778
318,0.032183
319,0.02528
320,0.027412
321,0.032004
322,0.028482
323,0.029121
324,0.023121
325,0.028479
326,0.027153
327,0.030344
328,0.028606
329,0.025057
330,0.030766
331,0.025354
332,0.029606
333,0.030505
334,0.024031
335,0.029707
336,0.025926
337,0.028439
338,0.029037
339,0.030301
340,0.028535
341,0.026048
342,0.030334
343,0.026881
344,0.024078
345,0.032053
346,0.026326
347,0.029613
348,0.032117
349,0.027567
350,0.028135
351,0.027453
352,0.027722
353,0.028927
354,0.027591
355,0.028135
356,0.025146
357,0.031959
358,0.027757
359,0.026222
360,0.030861
361,0.02321
362,0.029575
363,0.03193
364,0.023136
365,0.027846
366,0.030846
367,0.02758
368,0.02954
369,0.032096
370,0.023983
371,0.027697
372,0.0319
373,0.028322
374,0.029692
375,0.030588
376,0.023985
377,0.02971
378,0.025869
379,0.028397
380,0.025215
381,0.029764
382,0.026545
383,0.029879
384,0.028137
385,0.027266
386,0.025747
387,0.030543
388,0.027825
389,0.025315
390,0.025859
391,0.024879
392,0.029701
393,0.029343
394,0.024817
395,0.029613
396,0.025887
397,0.020899
398,0.026914
399,0.032355
400,0.028451
401,0.029037
402,0.032065
403,0.028009
404,0.021651
405,0.03
406,0.028585
407,0.029822
408,0.032157
409,0.024504
410,0.029703
411,0.025286
412,0.026153
413,0.029862
414,0.026403
415,0.028572
416,0.028584
417,0.030892
418,0.028111
419,0.025186
420,0.026385
421,0.027899
422,0.029782
423,0.032154
424,0.027117
425,0.026689
426,0.030854
427,0.028542
428,0.029759
429,0.03065
430,0.027488
431,0.029886
432,0.030722
433,0.026574
434,0.021813
435,0.025626
436,0.024183
437,0.02662
438,0.030572
439,0.025429
440,0.020655
441,0.024926
442,0.028993
443,0.024846
444,0.026439
445,0.024553
446,0.028204
447,0.029237
448,0.027878
449,0.029524
450,0.024677
451,0.028883
452,0.029778
453,0.031335
454,0.02864
455,0.029762
456,0.032122
457,0.028536
458,0.020549
459,0.028398
460,0.022933
461,0.024716
462,0.031982
463,0.028453
464,0.02592
465,0.032042
466,0.027699
467,0.029594
468,0.032037
469,0.025052
470,0.029769
471,0.027446
472,0.028562
473,0.028545
474,0.027291
475,0.028674
476,0.025268
477,0.030417
478,0.028485
479,0.029616
480,0.029168
481,0.027381
482,0.02972
483,0.030419
484,0.025188
485,0.028722
486,0.030453
487,0.028481
488,0.028862
489,0.028964
490,0.024311
491,0.029568
492,0.030372
493,0.027922
494,0.029747
495,0.030445
496,0.028547
497,0.025131
498,0.030427
499,0.02862
500,0.029657
501,0.026226
502,0.028389
503,0.029609
504,0.022787
505,0.028447
506,0.028523
507,0.03043
508,0.027842
509,0.029523
510,0.030342
511,0.024957
512,0.029691
513,0.030388
514,0.028461
515,0.025413
516,0.029325
517,0.028464
518,0.029802
519,0.030414
520,0.02842
521,0.028696
522,0.030364
523,0.027096
524,0.029584
525,0.032106
526,0.024027
527,0.029554
528,0.032296
529,0.022097
530,0.029586
531,0.030325
532,0.027658
533,0.029656
534,0.027599
535,0.026446
536,0.029754
537,0.031979
538,0.027624
539,0.029667
540,0.032059
541,0.027749
542,0.026095
543,0.032016
544,0.028434
545,0.029628
546,0.032295
547,0.021268
548,0.029896
549,0.027647
550,0.028481
551,0.029952
552,0.030367
553,0.028586
554,0.029689
555,0.01257
556,0.027692
557,0.026017
558,0.028578
559,0.03222
560,0.029693
561,0.028637
562,0.031951
563,0.02866
564,0.028626
565,0.031014
566,0.029777
567,0.028531
568,0.032059
569,0.029776
570,0.028605
571,0.027855
572,0.029716
573,0.028574
574,0.031955
575,0.029811
576,0.027755
577,0.026018
578,0.029644
579,0.027669
580,0.032005
581,0.030335
582,0.024682
583,0.029028
584,0.029839
585,0.027707
586,0.032081
587,0.029788
588,0.027311
589,0.03123
590,0.026195
591,0.024641
592,0.031245
593,0.029348
594,0.028802
595,0.030448
596,0.029807
597,0.028556
598,0.03077
599,0.02925
600,0.028838
601,0.030524
602,0.02476
603,0.013569
604,0.019266
605,0.028714
606,0.02737
607,0.030571
608,0.029422
609,0.022146
610,0.032391
611,0.024999
612,0.021928
613,0.027699
614,0.014578
615,0.014062
616,0.022418
617,0.023451
618,0.01504
619,0.017567
620,0.021288
621,0.02915
622,0.029844
623,0.028448
624,0.030976
625,0.024221
626,0.017306
627,0.021891
628,0.017222
629,0.022737
630,0.026716
631,0.027432
632,0.02388
633,0.027987
634,0.018224
635,0.028346
636,0.027622
637,0.017643
638,0.020144
639,0.016941
640,0.021407
641,0.025229
642,0.002324
643,0.020043
644,0.019526
645,0.017183
646,0.024975
647,0.022794
648,0.015214
649,0.019615
650,0.018147
651,0.015896
652,0.023786
653,0.016902
654,0.025215
655,0.024441
656,0.020127
657,0.022849
658,0.018931
659,0.016566
660,0.023849
661,0.013722
662,0.019239
663,0.022265
664,0.01655
665,0.025563
666,0.028553
667,0.015333
668,0.026022
669,0.025936
670,0.026578
671,0.025568
672,0.032371
673,0.029031
674,0.025557
675,0.02507
676,0.029751
677,0.024802
678,0.032081
679,0.022508
680,0.020903
681,0.02534
682,0.02379
683,0.023139
684,0.031008
685,0.028949
686,0.028412
687,0.029332
688,0.026972
689,0.027213
690,0.028778
691,0.025133
692,0.024844
693,0.032325
694,0.028119
695,0.028513
696,0.024742
697,0.01724
698,0.018708
699,0.019711
700,0.01888
701,0.017288
702,0.022607
703,0.028679
704,0.024201
705,0.028876
706,0.028454
707,0.026789
708,0.03064
709,0.024005
710,0.026987
711,0.02435
712,0.02492
713,0.02546
714,0.024107
715,0.02232
716,0.021013
717,0.028074
718,0.029998
719,0.02537
720,0.022514
721,0.027551
722,0.01892
723,0.027145
724,0.022117
725,0.028079
726,0.022483
727,0.024682
728,0.027872
729,0.029172
730,0.026551
731,0.028368
732,0.027786
733,0.028048
734,0.028727
735,0.027291
736,0.027981
737,0.027653
738,0.031037
739,0.024195
740,0.028527
741,0.027449
742,0.024534
743,0.028499
744,0.028668
745,0.027045
746,0.028494
747,0.030819
748,0.026503
749,0.027527
750,0.032136
751,0.024307
752,0.027582
753,0.029221
754,0.02728
755,0.027331
756,0.031894
757,0.014308
758,0.016792
759,0.024401
760,0.029806
761,0.025071
762,0.024021
763,0.02573
764,0.028561
765,0.029286
766,0.029629
767,0.027656
768,0.031875
769,0.027859
770,0.027891
771,0.030436
772,0.019992
773,0.01877
774,0.02386
775,0.016469
776,0.014013
777,0.022288
778,0.027192
779,0.021665
780,0.02347
781,0.022179
782,0.024319
783,0.024481
784,0.022518
785,0.023359
786,0.02962
787,0.02751
788,0.028498
789,0.032255
790,0.024507
791,0.02805
792,0.02918
793,0.024942
794,0.017034
795,0.023784
796,0.018164
797,0.014596
798,0.028308
799,0.024517
800,0.025998
801,0.020876
802,0.02444
803,0.023953
804,0.023369
805,0.013737
806,0.021515
807,0.014587
808,0.022019
809,0.022028
810,0.016842
811,0.024996
812,0.02002
813,0.019522
814,0.015691
815,0.020049
816,0.027888
817,0.028383
818,0.019719
819,0.022712
820,0.02047
821,0.029179
822,0.024429
823,0.026353
824,0.031046
825,0.029675
826,0.026777
827,0.024305
828,0.029576
829,0.02892
830,0.02408
831,0.029608
832,0.026031
833,0.023711
834,0.027163
835,0.029678
836,0.028408
837,0.025204
838,0.029574
839,0.027196
840,0.029603
841,0.029545
842,0.02024
843,0.025875
844,0.029188
845,0.029115
846,0.02973
847,0.029612
848,0.024943
849,0.029667
850,0.026606
851,0.029195
852,0.02969
853,0.025057
854,0.021316
855,0.012679
856,0.029571
857,0.027889
858,0.02974
859,0.029711
860,0.029191
861,0.029025
862,0.028525
863,0.026513
864,0.029854
865,0.026185
866,0.029756
867,0.026281
868,0.029567
869,0.030827
870,0.02796
871,0.028571
872,0.029815
873,0.0205
874,0.02984
875,0.030749
876,0.028888
877,0.028624
878,0.030793
879,0.029573
880,0.029646
881,0.031063
882,0.029891
883,0.025338
884,0.030932
885,0.029617
886,0.029686
887,0.031005
888,0.029784
889,0.0298
890,0.030826
891,0.029858
892,0.029826
893,0.026536
894,0.029769
895,0.029756
896,0.030956
897,0.02969
898,0.029573
899,0.03098
900,0.0298
901,0.029712
902,0.030922
903,0.029657
904,0.028459
905,0.030873
906,0.030524
907,0.029847
908,0.030869
909,0.028913
910,0.024211
911,0.020157
912,0.025985
913,0.029792
914,0.027977
915,0.023901
916,0.022814
917,0.040024
918,0.02961
919,0.024612
920,0.019586
921,0.020763
922,0.018151
923,0.015215
924,0.018462
925,0.021425
926,0.018174
927,0.023546
928,0.021899
929,0.02633
930,0.024869
931,0.01456
932,0.016418
933,0.022296
934,0.026875
935,0.029797
936,0.027699
937,0.024872
938,0.029691
939,0.024691
940,0.029619
941,0.028794
942,0.030778
943,0.0296
944,0.028799
945,0.030868
946,0.025237
947,0.028748
948,0.02981
949,0.02974
950,0.029505
951,0.025962
952,0.027184
953,0.026013
954,0.030048
955,0.029622
956,0.029666
957,0.030296
958,0.029773
959,0.025925
960,0.029904
961,0.029647
962,0.029455
963,0.025835
964,0.029755
965,0.02951
966,0.031046
967,0.029866
968,0.029553
969,0.030171
970,0.02979
971,0.028759
972,0.029887
973,0.02533
974,0.029737
975,0.029715
976,0.029962
977,0.028838
978,0.030777
979,0.029602
980,0.027654
981,0.030937
982,0.029971
983,0.028311
984,0.029331
985,0.02904
986,0.028705
987,0.026508
988,0.029729
989,0.026908
990,0.030724
991,0.029631
992,0.025918
993,0.027646
994,0.026068
995,0.029655
996,0.025599
997,0.029633
998,0.028927
999,0.026656
1000,0.029178
1001,0.029792
1002,0.03096
1003,0.029712
1004,0.029892
1005,0.030931
1006,0.029803
1007,0.029697
1008,0.030845
1009,0.029703
1010,0.029678
1011,0.030978
1012,0.029613
1013,0.028884
1014,0.026413
1015,0.029852
1016,0.029902
1017,0.030903
1018,0.029749
1019,0.029704
1020,0.030746
1021,0.029693
1022,0.027216
1023,0.03091
1024,0.02983
1025,0.029682
1026,0.030886
1027,0.029751
1028,0.029718
1029,0.030947
1030,0.02977
1031,0.029127
1032,0.02657
1033,0.027267
1034,0.027719
1035,0.030812
1036,0.029646
1037,0.027827
1038,0.030824
1039,0.029576
1040,0.028116
1041,0.030735
1042,0.029513
1043,0.023787
1044,0.030979
1045,0.029666
1046,0.029777
1047,0.029159
1048,0.029612
1049,0.029673
1050,0.025799
1051,0.030654
1052,0.029873
1053,0.026371
1054,0.028631
1055,0.028578
1056,0.031034
1057,0.029667
1058,0.029706
1059,0.031157
1060,0.029021
1061,0.029827
1062,0.031081
1063,0.027081
1064,0.028558
1065,0.029801
1066,0.029761
1067,0.02917
1068,0.030832
1069,0.029806
1070,0.028381
1071,0.031082
1072,0.02528
1073,0.027284
1074,0.022755
1075,0.029083
1076,0.029688
1077,0.031015
1078,0.029709
1079,0.027848
1080,0.030793
1081,0.029101
1082,0.028839
1083,0.030875
1084,0.029692
1085,0.028997
1086,0.030729
1087,0.02957
1088,0.028864
1089,0.031046
1090,0.029611
1091,0.028841
1092,0.030982
1093,0.029614
1094,0.028907
1095,0.02979
1096,0.029645
1097,0.025138
1098,0.030767
1099,0.028777
1100,0.029623
1101,0.029705
1102,0.029178
1103,0.029463
1104,0.029868
1105,0.028675
1106,0.029309
1107,0.03058
1108,0.017815
1109,0.02678
1110,0.017836
1111,0.029818
1112,0.025503
1113,0.030789
1114,0.024244
1115,0.029257
1116,0.030389
1117,0.025367
1118,0.029279
1119,0.02569
1120,0.030329
1121,0.028165
1122,0.030464
1123,0.029998
1124,0.029828
1125,0.03038
1126,0.030021
1127,0.029109
1128,0.030234
1129,0.027354
1130,0.029602
1131,0.030128
1132,0.029623
1133,0.029724
1134,0.030366
1135,0.02568
1136,0.027181
1137,0.030292
1138,0.028093
1139,0.030001
1140,0.029168
1141,0.028785
1142,0.024896
1143,0.02433
1144,0.029091
1145,0.02971
1146,0.031008
1147,0.029594
1148,0.028635
1149,0.029698
1150,0.028627
1151,0.028581
1152,0.028001
1153,0.024031
1154,0.015763
1155,0.021917
1156,0.03016
1157,0.024417
1158,0.025103
1159,0.029674
1160,0.025949
1161,0.028778
1162,0.02128
1163,0.021196
1164,0.027035
1165,0.027304
1166,0.022003
1167,0.031181
1168,0.025312
1169,0.027016
1170,0.022738
1171,0.028769
1172,0.029697
1173,0.025605
1174,0.028682
1175,0.026985
1176,0.029904
1177,0.025099
1178,0.02957
1179,0.029952
1180,0.028703
1181,0.02955
1182,0.028257
1183,0.026003
1184,0.029795
1185,0.030067
1186,0.029466
1187,0.029775
1188,0.024388
1189,0.02961
1190,0.025875
1191,0.028357
1192,0.026627
1193,0.029904
1194,0.027013
1195,0.029736
1196,0.029751
1197,0.02427
1198,0.025176
1199,0.02966
1200,0.028121
1201,0.02971
1202,0.025645
1203,0.030797
1204,0.028941
1205,0.028004
1206,0.030946
1207,0.029073
1208,0.028779
1209,0.030708
1210,0.028776
1211,0.028786
1212,0.030941
1213,0.026099
1214,0.029
1215,0.029712
1216,0.029685
1217,0.0277
1218,0.030932
1219,0.02978
1220,0.027682
1221,0.030886
1222,0.02963
1223,0.028967
1224,0.030917
1225,0.029001
1226,0.028012
1227,0.029273
1228,0.029542
1229,0.028162
1230,0.029509
1231,0.029659
1232,0.023365
1233,0.0266
1234,0.029612
1235,0.026834
1236,0.030763
1237,0.029093
1238,0.028761
1239,0.03066
1240,0.028711
1241,0.028938
1242,0.031069
1243,0.028841
1244,0.028797
1245,0.030637
1246,0.028839
1247,0.029739
1248,0.029326
1249,0.021169
1250,0.022894
1251,0.028425
1252,0.026118
1253,0.028245
1254,0.025725
1255,0.029651
1256,0.029671
1257,0.030242
1258,0.025529
1259,0.029523
1260,0.022952
1261,0.0205
1262,0.019691
1263,0.017973
1264,0.00196
1265,0.020828
1266,0.024937
1267,0.026503
1268,0.017191
1269,0.024832
1270,0.01307
1271,0.025192
1272,0.019416
1273,0.022375
1274,0.023406
1275,0.02651
1276,0.030812
1277,0.028457
1278,0.023043
1279,0.030957
1280,0.028446
1281,0.029069
1282,0.030873
1283,0.028447
1284,0.025168
1285,0.03101
1286,0.025192
1287,0.030693
1288,0.03097
1289,0.028002
1290,0.02559
1291,0.026399
1292,0.021197
1293,0.023192
1294,0.014661
1295,0.015265
1296,0.026164
1297,0.030668
1298,0.025205
1299,0.02524
1300,0.025626
1301,0.028477
1302,0.030813
1303,0.03081
1304,0.025173
1305,0.030805
1306,0.024596
1307,0.020197
1308,0.026528
1309,0.024584
1310,0.019768
1311,0.022828
1312,0.026337
1313,0.027647
1314,0.018821
1315,0.029177
1316,0.022062
1317,0.023545
1318,0.026192
1319,0.017023
1320,0.018963
1321,0.023728
1322,0.024938
1323,0.02129
1324,0.023431
1325,0.018745
1326,0.019207
1327,0.029165
1328,0.026767
1329,0.030945
1330,0.031154
1331,0.027383
1332,0.02687
1333,0.027255
1334,0.028365
1335,0.031198
1336,0.02838
1337,0.021892
1338,0.023865
1339,0.026412
1340,0.028535
1341,0.029765
1342,0.030764
1343,0.028801
1344,0.030932
1345,0.03089
1346,0.02851
1347,0.03101
1348,0.028074
1349,0.028491
1350,0.031094
1351,0.031308
1352,0.028543
1353,0.028408
1354,0.030852
1355,0.028459
1356,0.030818
1357,0.030807
1358,0.023793
1359,0.030902
1360,0.030976
1361,0.02796
1362,0.030851
1363,0.030793
1364,0.02851
1365,0.030932
1366,0.030902
1367,0.028385
1368,0.028471
1369,0.030853
1370,0.027381
1371,0.031003
1372,0.030937
1373,0.028667
1374,0.030843
1375,0.026677
1376,0.028582
1377,0.031041
1378,0.030851
1379,0.028488
1380,0.030733
1381,0.026672
1382,0.028565
1383,0.030998
1384,0.024704
1385,0.026128
1386,0.015516
1387,0.018416
1388,0.023931
1389,0.030863
1390,0.029151
1391,0.028424
1392,0.030778
1393,0.021096
1394,0.016733
1395,0.01951
1396,0.022655
1397,0.020769
1398,0.017578
1399,0.025354
1400,0.024131
1401,0.025025
1402,0.019259
1403,0.018999
1404,0.02684
1405,0.020387
1406,0.02689
1407,0.029706
1408,0.028533
1409,0.026943
1410,0.026967
1411,0.026397
1412,0.026757
1413,0.0309
1414,0.030791
1415,0.026819
1416,0.030826
1417,0.030761
1418,0.026781
1419,0.026269
1420,0.030802
1421,0.026787
1422,0.030823
1423,0.028663
1424,0.023225
1425,0.030642
1426,0.031146
1427,0.028538
1428,0.030944
1429,0.030635
1430,0.028267
1431,0.026327
1432,0.030756
1433,0.028625
1434,0.022934
1435,0.02186
1436,0.010546
1437,0.027121
1438,0.024461
1439,0.025678
1440,0.028183
1441,0.026478
1442,0.027238
1443,0.028137
1444,0.029156
1445,0.028152
1446,0.013634
1447,0.015149
1448,0.018609
1449,0.024776
1450,0.025498
1451,0.022143
1452,0.030968
1453,0.029672
1454,0.019129
1455,0.010732
1456,0.018793
1457,0.023629
1458,0.026466
1459,0.025783
1460,0.029891
1461,0.02804
1462,0.026938
1463,0.029513
1464,0.028063
1465,0.027108
1466,0.029899
1467,0.029248
1468,0.012665
1469,0.025189
1470,0.032167
1471,0.011949
1472,0.02384
1473,0.026697
1474,0.02019
1475,0.036426
1476,0.018558
1477,0.024544
1478,0.021268
1479,0.019673
1480,0.020382
1481,0.029614
1482,0.028587
1483,0.020913
1484,0.02439
1485,0.02877
1486,0.026039
1487,0.026622
1488,0.025679
1489,0.029107
1490,0.029649
1491,0.02454
1492,0.026319
1493,0.031053
1494,0.024602
1495,0.021713
1496,0.024584
1497,0.016348
1498,0.029879
1499,0.029436
1500,0.02853
1501,0.029127
1502,0.030913
1503,0.028608
1504,0.029291
1505,0.030757
1506,0.028518
1507,0.024114
1508,0.030866
1509,0.028511
1510,0.029232
1511,0.030835
1512,0.028397
1513,0.029211
1514,0.03077
1515,0.027294
1516,0.0293
1517,0.026462
1518,0.028483
1519,0.029166
1520,0.030909
1521,0.028494
1522,0.029444
1523,0.027747
1524,0.028383
1525,0.029318
1526,0.029236
1527,0.02856
1528,0.030888
1529,0.029098
1530,0.028405
1531,0.027679
1532,0.027518
1533,0.028529
1534,0.030835
1535,0.028031
1536,0.024697
1537,0.026229
1538,0.025151
1539,0.028399
1540,0.03077
1541,0.027846
1542,0.028474
1543,0.026203
1544,0.02918
1545,0.0285
1546,0.030782
1547,0.026363
1548,0.026024
1549,0.030885
1550,0.029427
1551,0.025299
1552,0.030827
1553,0.02735
1554,0.028275
1555,0.030869
1556,0.020544
1557,0.028448
1558,0.030721
1559,0.027366
1560,0.028492
1561,0.03079
1562,0.02766
1563,0.028437
1564,0.030637
1565,0.027297
1566,0.028261
1567,0.030928
1568,0.029689
1569,0.02836
1570,0.030771
1571,0.027314
1572,0.028338
1573,0.030868
1574,0.027498
1575,0.028491
1576,0.030772
1577,0.027539
1578,0.028581
1579,0.03083
1580,0.029182
1581,0.026005
1582,0.030768
1583,0.030853
1584,0.02598
1585,0.03081
1586,0.02208
1587,0.02866
1588,0.026275
1589,0.030914
1590,0.028593
1591,0.030894
1592,0.031224
1593,0.018631
1594,0.026479
1595,0.031107
1596,0.026861
1597,0.031047
1598,0.027214
1599,0.0229
1600,0.030903
1601,0.026305
1602,0.027767
1603,0.02778
1604,0.030905
1605,0.027761
1606,0.027756
1607,0.031123
1608,0.023353
1609,0.027846
1610,0.031098
1611,0.027732
1612,0.030836
1613,0.031023
1614,0.027736
1615,0.031135
1616,0.024642
1617,0.028713
1618,0.025278
1619,0.030954
1620,0.028635
1621,0.030856
1622,0.030867
1623,0.028486
1624,0.030957
1625,0.031292
1626,0.028494
1627,0.030922
1628,0.026436
1629,0.02854
1630,0.031059
1631,0.029786
1632,0.027667
1633,0.030787
1634,0.030773
1635,0.027666
1636,0.02699
1637,0.031166
1638,0.020769
1639,0.030835
1640,0.030863
1641,0.024491
1642,0.030923
1643,0.026458
1644,0.027708
1645,0.03095
1646,0.026538
1647,0.024454
1648,0.022979
1649,0.030949
1650,0.027678
1651,0.03084
1652,0.030807
1653,0.026967
1654,0.030805
1655,0.031083
1656,0.027682
1657,0.030908
1658,0.026893
1659,0.027597
1660,0.030866
1661,0.029701
1662,0.027668
1663,0.030882
1664,0.03076
1665,0.02764
1666,0.030871
1667,0.026478
1668,0.027678
1669,0.030721
1670,0.030727
1671,0.027666
1672,0.030825
1673,0.030944
1674,0.028476
1675,0.026453
1676,0.024403
1677,0.028465
1678,0.030739
1679,0.030782
1680,0.028529
1681,0.029495
1682,0.030795
1683,0.026157
1684,0.030971
1685,0.030955
1686,0.026108
1687,0.026392
1688,0.029672
1689,0.026876
1690,0.030839
1691,0.026346
1692,0.028473
1693,0.026859
1694,0.03
1695,0.028478
1696,0.030442
1697,0.030216
1698,0.027664
1699,0.030799
1700,0.030837
1701,0.027864
1702,0.030713
1703,0.029219
1704,0.024702
1705,0.030854
1706,0.02848
1707,0.02857
1708,0.030854
1709,0.029253
1710,0.028447
1711,0.030748
1712,0.028342
1713,0.028453
1714,0.029041
1715,0.029862
1716,0.024492
1717,0.024139
1718,0.024167
1719,0.022217
1720,0.027167
1721,0.021026
1722,0.017993
1723,0.023555
1724,0.01112
1725,0.020374
1726,0.02002
1727,0.017725
1728,0.025524
1729,0.021522
1730,0.023427
1731,0.01273
1732,0.024074
1733,0.025676
1734,0.023818
1735,0.011898
1736,0.023175
1737,0.024169
1738,0.02454
1739,0.018918
1740,0.023916
1741,0.01774
1742,0.02246
1743,0.020414
1744,0.023606
1745,0.022324
1746,0.022294
1747,0.017656
1748,0.024162
1749,0.017591
1750,0.027929
1751,0.027829
1752,0.02458
1753,0.029422
1754,0.021999
1755,0.026439
1756,0.027563
1757,0.025707
1758,0.030644
1759,0.024343
1760,0.022729
1761,0.029864
1762,0.02739
1763,0.022778
1764,0.02759
1765,0.027723
1766,0.02282
1767,0.023324
1768,0.027713
1769,0.026063
1770,0.027173
1771,0.031013
1772,0.024796
1773,0.024776
1774,0.026344
1775,0.026334
1776,0.031014
1777,0.028234
1778,0.023066
1779,0.030709
1780,0.032305
1781,0.024779
1782,0.026837
1783,0.031997
1784,0.02719
1785,0.030036
1786,0.032243
1787,0.027311
1788,0.030953
1789,0.031923
1790,0.025289
1791,0.030959
1792,0.032058
1793,0.025536
1794,0.029339
1795,0.027114
1796,0.023768
1797,0.025066
1798,0.032275
1799,0.026738
1800,0.026308
1801,0.032094
1802,0.027268
1803,0.028075
1804,0.029017
1805,0.021792
1806,0.018588
1807,0.032605
1808,0.019396
1809,0.027506
1810,0.027822
1811,0.024542
1812,0.015988
1813,0.029076
1814,0.027282
1815,0.030846
1816,0.028869
1817,0.022158
1818,0.026264
1819,0.030188
1820,0.026404
1821,0.030663
1822,0.029038
1823,0.026488
1824,0.030869
1825,0.032113
1826,0.023087
1827,0.018507
1828,0.023594
1829,0.027338
1830,0.031002
1831,0.029216
1832,0.027403
1833,0.030961
1834,0.030407
1835,0.027251
1836,0.030952
1837,0.030338
1838,0.027306
1839,0.031013
1840,0.032379
1841,0.02417
1842,0.03082
1843,0.030379
1844,0.027237
1845,0.027907
1846,0.024047
1847,0.023154
1848,0.029212
1849,0.025946
1850,0.0274740,0.019988
1,0.033536
2,0.031674
3,0.025278
4,0.014026
5,0.028049
6,0.012498
7,0.017649
8,0.012612
9,0.011578
10,0.01464
11,0.028255
12,0.028728
13,0.033457
14,0.033159
15,0.019169
16,0.028244
17,0.032439
18,0.018841
19,0.030602
20,0.034654
21,0.019126
22,0.011776
23,0.036071
24,0.014799
25,0.029732
26,0.01738
27,0.023485
28,0.031655
29,0.009436
30,0.025686
31,0.010691
32,0.032017
33,0.024072
34,0.008363
35,0.029421
36,0.025328
37,0.012497
38,0.027592
39,0.025191
40,0.02485
41,0.00864
42,0.022025
43,0.022878
44,0.013719
45,0.019435
46,0.015277
47,0.031185
48,0.017471
49,0.022149
50,0.019631
51,0.008234
52,0.014152
53,0.018862
54,0.026108
55,0.028587
56,0.025393
57,0.031493
58,0.026514
59,0.01978
60,0.024682
61,0.025827
62,0.028199
63,0.023935
64,0.016969
65,0.013644
66,0.026815
67,0.017939
68,0.016224
69,0.009063
70,0.024468
71,0.021399
72,0.024218
73,0.034585
74,0.017487
75,0.024827
76,0.026623
77,0.029339
78,0.013288
79,0.022382
80,0.024029
81,0.036506
82,0.010668
83,0.023337
84,0.02245
85,0.014808
86,0.017914
87,0.024319
88,0.015795
89,0.023861
90,0.017226
91,0.00946
92,0.023941
93,0.01152
94,0.030472
95,0.021582
96,0.010572
97,0.007509
98,0.011044
99,0.01788
100,0.019247
101,0.025127
102,0.028097
103,0.032311
104,0.021952
105,0.003274
106,0.037727
107,0.010343
108,0.024249
109,0.015813
110,0.025185
111,0.020059
112,0.009404
113,0.023815
114,0.026438
115,0.02282
116,0.025507
117,0.01491
118,0.010609
119,0.025157
120,0.027527
121,0.032724
122,0.018058
123,0.01982
124,0.021844
125,0.010541
126,0.02553
127,0.02191
128,0.018659
129,0.022283
130,0.016796
131,0.027027
132,0.018108
133,0.010219
134,0.010924
135,0.017565
136,0.025517
137,0.020505
138,0.018938
139,0.031174
140,0.028565
141,0.017644
142,0.020279
143,0.017058
144,0.016753
145,0.016566
146,0.026801
147,0.018752
148,0.019819
149,0.024247
150,0.016601
151,0.003692
152,0.018337
153,0.018016
154,0.010503
155,0.035448
156,0.017614
157,0.022093
158,0.022712
159,0.030719
160,0.016196
161,0.022613
162,0.02928
163,0.012765
164,0.025857
165,0.016718
166,0.020588
167,0.00895
168,0.019513
169,0.021284
170,0.024467
171,0.023046
172,0.011235
173,0.011588
174,0.024478
175,0.008904
176,0.014685
177,0.022577
178,0.027891
179,0.010695
180,0.02758
181,0.009779
182,0.028421
183,0.025205
184,0.012526
185,0.016495
186,0.035467
187,0.026488
188,0.023654
189,0.020097
190,0.034419
191,0.024298
192,0.033637
193,0.027283
194,0.023246
195,0.002375
196,0.027557
197,0.01489
198,0.009622
199,0.024663
200,0.028
201,0.008811
202,0.011976
203,0.021902
204,0.013331
205,0.03023
206,0.027945
207,0.023886
208,0.013637
209,0.009639
210,0.013066
211,0.029392
212,0.014414
213,0.020537
214,0.015692
215,0.020423
216,0.015995
217,0.01067
218,0.035706
219,0.02353
220,0.024076
221,0.015827
222,0.034724
223,0.025169
224,0.014857
225,0.011444
226,0.017508
227,0.003564
228,0.022546
229,0.021683
230,0.028486
231,0.019971
232,0.012367
233,0.021923
234,0.021951
235,0.033432
236,0.005702
237,0.03298
238,0.008067
239,0.009421
240,0.021254
241,0.029349
242,0.02619
243,0.025209
244,0.0107
245,0.011121
246,0.012099
247,0.02554
248,0.029577
249,0.011448
0,0.024725
1,0.010943
2,0.011422
3,0.01129
4,0.007961
5,0.009246
6,0.009253
7,0.007967
8,0.008209
9,0.009892
10,0.007503
11,0.007143
12,0.009843
13,0.008598
14,0.007464
15,0.00756
16,0.008201
17,0.007253
18,0.007404
19,0.007763
20,0.007643
21,0.006883
22,0.006957
23,0.006975
24,0.008395
25,0.009079
26,0.00914
27,0.007942
28,0.008349
29,0.008937
30,0.007434
31,0.00791
32,0.00857
33,0.014325
34,0.014049
35,0.014307
36,0.008956
37,0.007965
38,0.010195
39,0.014032
40,0.011957
41,0.009504
42,0.010382
43,0.009817
44,0.006807
45,0.007039
46,0.010186
47,0.010179
48,0.011256
49,0.006889
50,0.007518
51,0.008998
52,0.00947
53,0.010056
54,0.009848
55,0.009375
56,0.011814
57,0.014725
58,0.013604
59,0.011869
60,0.010672
61,0.010754
62,0.009789
63,0.014664
64,0.007438
65,0.008903
66,0.009087
67,0.012742
68,0.009329
69,0.009368
70,0.009218
71,0.011956
72,0.009957
73,0.011806
74,0.012218
75,0.007782
76,0.007482
77,0.007915
78,0.009655
79,0.014537
80,0.009577
81,0.008185
82,0.011739
83,0.013003
84,0.009577
85,0.008235
86,0.009255
87,0.008625
88,0.007187
89,0.007031
90,0.007807
91,0.00994
92,0.008252
93,0.008066
94,0.007624
95,0.007854
96,0.009178
97,0.008009
98,0.009677
99,0.007649
100,0.007734
101,0.007747
102,0.007854
103,0.00778
104,0.007175
105,0.008645
106,0.0087
107,0.008094
108,0.007678
109,0.007181
110,0.007413
111,0.007629
112,0.009988
113,0.009833
114,0.012751
115,0.010359
116,0.012475
117,0.009415
118,0.009529
119,0.007494
120,0.010957
121,0.010289
122,0.010206
123,0.008129
124,0.007074
125,0.007951
126,0.007656
127,0.007634
128,0.007463
129,0.007532
130,0.007707
131,0.007731
132,0.007392
133,0.007119
134,0.009411
135,0.009277
136,0.012697
137,0.007836
138,0.00832
139,0.008489
140,0.008377
141,0.007433
142,0.007738
143,0.007231
144,0.007025
145,0.007786
146,0.00723
147,0.007569
148,0.008853
149,0.007945
150,0.007476
151,0.007081
152,0.007995
153,0.008328
154,0.008493
155,0.008685
156,0.007088
157,0.008689
158,0.007878
159,0.007969
160,0.006326
161,0.007908
162,0.005967
163,0.007716
164,0.007416
165,0.009273
166,0.008555
167,0.007767
168,0.006752
169,0.007808
170,0.011436
171,0.008809
172,0.008634
173,0.005747
174,0.007945
175,0.007953
176,0.008557
177,0.007363
178,0.007238
179,0.007895
180,0.009282
181,0.007578
182,0.007439
183,0.007487
184,0.008604
185,0.010135
186,0.012247
187,0.010737
188,0.011178
189,0.010444
190,0.009117
191,0.007358
192,0.007959
193,0.008257
194,0.008695
195,0.008783
196,0.009066
197,0.006859
198,0.00664
199,0.008951
200,0.007899
201,0.007758
202,0.008615
203,0.007274
204,0.007129
205,0.00834
206,0.009964
207,0.014878
208,0.014542
209,0.01947
210,0.006998
211,0.009061
212,0.007996
213,0.008002
214,0.007712
215,0.007411
216,0.010638
217,0.010494
218,0.009653
219,0.009164
220,0.008364
221,0.007863
222,0.007242
223,0.008696
224,0.010173
225,0.009061
226,0.007915
227,0.0043
228,0.010167
229,0.007451
230,0.00847
231,0.007979
232,0.008305
233,0.009746
234,0.010074
235,0.008009
236,0.006367
237,0.007189
238,0.009426
239,0.009409
240,0.012228
241,0.010997
242,0.010056
243,0.012054
244,0.010263
245,0.010395
246,0.011225
247,0.015538
248,0.00888
249,0.008867
250,0.008105
251,0.007735
252,0.007823
253,0.00815
254,0.00833
255,0.00754
256,0.006504
257,0.007781
258,0.008116
259,0.008722
260,0.008996
261,0.010079
262,0.020739
263,0.007264
264,0.007649
265,0.007207
266,0.008951
267,0.00705
268,0.00739
269,0.011223
270,0.007438
271,0.007361
272,0.007158
273,0.007987
274,0.010938
275,0.014169
276,0.013538
277,0.007024
278,0.006663
279,0.007411
280,0.008266
281,0.007665
282,0.007828
283,0.00801
284,0.007098
285,0.006788
286,0.007605
287,0.007899
288,0.010193
289,0.014983
290,0.009801
291,0.009104
292,0.010171
293,0.010285
294,0.010729
295,0.0122
296,0.010322
297,0.009626
298,0.010726
299,0.011748
300,0.007211
301,0.010901
302,0.011692
303,0.015062
304,0.008914
305,0.008567
306,0.007967
307,0.007368
308,0.007495
309,0.011778
310,0.008604
311,0.008862
312,0.009888
313,0.008368
314,0.007936
315,0.008987
316,0.009484
317,0.009104
318,0.009444
319,0.009437
320,0.00822
321,0.007505
322,0.00883
323,0.006909
324,0.009431
325,0.008291
326,0.008873
327,0.007637
328,0.007972
329,0.008082
330,0.009322
331,0.010743
332,0.010807
333,0.010823
334,0.00797
335,0.009135
336,0.00971
337,0.007441
338,0.00779
339,0.007296
340,0.00735
341,0.007133
342,0.007282
343,0.008153
344,0.008289
345,0.00772
346,0.012646
347,0.007946
348,0.010558
349,0.010951
350,0.008541
351,0.007462
352,0.006759
353,0.008008
354,0.008431
355,0.008474
356,0.011727
357,0.007202
358,0.006836
359,0.009474
360,0.006615
361,0.009383
362,0.007585
363,0.008592
364,0.007164
365,0.007739
366,0.009042
367,0.011719
368,0.014122
369,0.013574
370,0.0132
371,0.008751
372,0.012447
373,0.007216
374,0.008523
375,0.010603
376,0.010928
377,0.010455
378,0.0105
379,0.012453
380,0.009811
381,0.011601
382,0.010734
383,0.007929
384,0.010171
385,0.010049
386,0.007286
387,0.007277
388,0.007666
389,0.009401
390,0.008667
391,0.008826
392,0.006659
393,0.008093
394,0.006769
395,0.008513
396,0.011029
397,0.01125
398,0.018086
399,0.011339
400,0.009057
401,0.00913
402,0.009814
403,0.014451
404,0.012336
405,0.017225
406,0.011903
407,0.010353
408,0.009119
409,0.007577
410,0.007501
411,0.01064
412,0.009743
413,0.009092
414,0.009081
415,0.008768
416,0.008313
417,0.008236
418,0.0073
419,0.009563
420,0.008171
421,0.007577
422,0.010965
423,0.009745
424,0.009361
425,0.008958
426,0.006919
427,0.006958
428,0.007655
429,0.018924
430,0.007932
431,0.010136
432,0.008647
433,0.007854
434,0.00781
435,0.009438
436,0.010423
437,0.011664
438,0.012467
439,0.008501
440,0.007681
441,0.00784
442,0.007591
443,0.007648
444,0.007626
445,0.007712
446,0.007199
447,0.00721
448,0.008975
449,0.009808
450,0.00752
451,0.008406
452,0.008064
453,0.008829
454,0.009121
455,0.010962
456,0.00758
457,0.006379
458,0.007557
459,0.010451
460,0.011668
461,0.01015
462,0.007408
463,0.007118
464,0.007609
465,0.01051
466,0.010861
467,0.013305
468,0.008424
469,0.008672
470,0.008017
471,0.008338
472,0.007529
473,0.006927
474,0.007129
475,0.009056
476,0.008099
477,0.008141
478,0.008221
479,0.00912
480,0.009578
481,0.00945
482,0.010777
483,0.008237
484,0.010181
485,0.007087
486,0.007547
487,0.009365
488,0.006781
489,0.006715
490,0.014324
491,0.009212
492,0.007078
493,0.008356
494,0.006506
495,0.006556
496,0.006988
497,0.007643
498,0.008963
499,0.006961
500,0.008324
501,0.014683
502,0.012448
503,0.013699
504,0.011375
505,0.007609
506,0.010078
507,0.014391
508,0.008792
509,0.007131
510,0.007825
511,0.007508
512,0.006702
513,0.007594
514,0.009999
515,0.00958
516,0.009341
517,0.007287
518,0.0074
519,0.007078
520,0.006731
521,0.006484
522,0.007335
523,0.008608
524,0.00966
525,0.00984
526,0.0096
527,0.008069
528,0.00686
529,0.010829
530,0.010138
531,0.011386
532,0.0106
533,0.011087
534,0.00845
535,0.005547
536,0.010507
537,0.010599
538,0.012027
539,0.010283
540,0.009803
541,0.014589
542,0.012979
543,0.010818
544,0.009422
545,0.009826
546,0.010637
547,0.008427
548,0.007279
549,0.007432
550,0.007509
551,0.00795
552,0.010182
553,0.009401
554,0.007156
555,0.007043
556,0.007056
557,0.008855
558,0.009543
559,0.010369
560,0.010678
561,0.008621
562,0.007945
563,0.006452
564,0.00668
565,0.009092
566,0.010304
567,0.007582
568,0.009214
569,0.005434
570,0.010408
571,0.007005
572,0.010087
573,0.008978
574,0.006876
575,0.006771
576,0.008101
577,0.006569
578,0.009825
579,0.007997
580,0.014174
581,0.012247
582,0.013451
583,0.009268
584,0.010736
585,0.008796
586,0.008689
587,0.008649
588,0.008627
589,0.012938
590,0.013022
591,0.00903
592,0.009358
593,0.01095
594,0.011527
595,0.010733
596,0.008611
597,0.010432
598,0.009142
599,0.007131
600,0.00779
601,0.00795
602,0.008062
603,0.006983
604,0.007095
605,0.00855
606,0.007333
607,0.008188
608,0.008805
609,0.008525
610,0.009231
611,0.008344
612,0.007281
613,0.006999
614,0.007701
615,0.010674
616,0.007597
617,0.007167
618,0.00856
619,0.009377
620,0.011042
621,0.007316
622,0.007605
623,0.007474
624,0.011076
625,0.011424
626,0.010286
627,0.009165
628,0.008335
629,0.009092
630,0.009457
631,0.009287
632,0.007379
633,0.006977
634,0.007456
635,0.008397
636,0.007052
637,0.006639
638,0.007503
639,0.009063
640,0.00678
641,0.00781
642,0.009991
643,0.005396
644,0.006692
645,0.010085
646,0.009718
647,0.010682
648,0.007618
649,0.008901
650,0.011049
651,0.010097
652,0.009689
653,0.007356
654,0.006354
655,0.007574
656,0.009387
657,0.012422
658,0.015219
659,0.007233
660,0.009634
661,0.009389
662,0.008826
663,0.00866
664,0.014124
665,0.014474
666,0.011423
667,0.007601
668,0.0072
669,0.006778
670,0.008623
671,0.009017
672,0.008657
673,0.007926
674,0.008106
675,0.009014
676,0.009218
677,0.008677
678,0.009726
679,0.013057
680,0.011428
681,0.008859
682,0.007768
683,0.007105
684,0.006999
685,0.00849
686,0.008675
687,0.008711
688,0.007442
689,0.0109
690,0.009638
691,0.012061
692,0.0123
693,0.009697
694,0.010233
695,0.007872
696,0.00746
697,0.007452
698,0.008074
699,0.007533
700,0.009122
701,0.007861
702,0.008659
703,0.008796
704,0.009455
705,0.010711
706,0.010411
707,0.008594
708,0.007962
709,0.008231
710,0.009951
711,0.009191
712,0.007706
713,0.009452
714,0.007278
715,0.007226
716,0.007778
717,0.006719
718,0.004929
719,0.012935
720,0.00868
721,0.007109
722,0.007045
723,0.007691
724,0.011137
725,0.010044
726,0.007342
727,0.007834
728,0.009571
729,0.009989
730,0.009578
731,0.009688
732,0.011371
733,0.011846
734,0.011016
735,0.009711
736,0.010186
737,0.008921
738,0.010368
739,0.00901
740,0.009918
741,0.011342
742,0.011841
743,0.010636
744,0.009455
745,0.010653
746,0.008998
747,0.007088
748,0.007665
749,0.012378
750,0.008215
751,0.008635
752,0.006802
753,0.011151
754,0.01005
755,0.008722
756,0.007264
757,0.007126
758,0.009421
759,0.008048
760,0.010739
761,0.010835
762,0.010265
763,0.009211
764,0.010498
765,0.006871
766,0.008552
767,0.010243
768,0.009024
769,0.00879
770,0.008276
771,0.00982
772,0.010955
773,0.011125
774,0.011087
775,0.00863
776,0.009729
777,0.012616
778,0.010434
779,0.009987
780,0.010848
781,0.00958
782,0.00779
783,0.007918
784,0.00745
785,0.012298
786,0.006988
787,0.008855
788,0.009048
789,0.009173
790,0.009436
791,0.007739
792,0.007416
793,0.008099
794,0.010964
795,0.010074
796,0.009252
797,0.009179
798,0.010403
799,0.010077
800,0.007447
801,0.008577
802,0.00749
803,0.007107
804,0.007038
805,0.008526
806,0.009912
807,0.007863
808,0.00844
809,0.007913
810,0.007345
811,0.008238
812,0.013726
813,0.013726
814,0.014365
815,0.012789
816,0.008776
817,0.008065
818,0.008714
819,0.008646
820,0.007915
821,0.007365
822,0.007651
823,0.00768
824,0.009242
825,0.009384
826,0.014565
827,0.010949
828,0.009073
829,0.008261
830,0.007131
831,0.006961
832,0.006836
833,0.007127
834,0.007231
835,0.008526
836,0.008977
837,0.009967
838,0.010913
839,0.007876
840,0.010469
841,0.009801
842,0.009928
843,0.009566
844,0.009348
845,0.008366
846,0.009079
847,0.007013
848,0.010643
849,0.007657
850,0.007868
851,0.007558
852,0.007034
853,0.007772
854,0.010717
855,0.009165
856,0.008211
857,0.010405
858,0.007544
859,0.007651
860,0.009786
861,0.009231
862,0.00863
863,0.00957
864,0.008833
865,0.006976
866,0.007076
867,0.011098
868,0.010984
869,0.010504
870,0.010763
871,0.010126
872,0.007868
873,0.006893
874,0.007032
875,0.007008
876,0.007461
877,0.010321
878,0.010645
879,0.009954
880,0.0096
881,0.010346
882,0.008033
883,0.00815
884,0.008051
885,0.008214
886,0.00848
887,0.0088
888,0.014254
889,0.013125
890,0.007152
891,0.007707
892,0.00773
893,0.007451
894,0.007287
895,0.007424
896,0.007994
897,0.008011
898,0.007523
899,0.009163
900,0.007347
901,0.014814
902,0.010357
903,0.009154
904,0.008474
905,0.007627
906,0.00752
907,0.007985
908,0.00832
909,0.00856
910,0.00933
911,0.009502
912,0.008582
913,0.007476
914,0.007286
915,0.007633
916,0.007313
917,0.009816
918,0.0098
919,0.007291
920,0.007468
921,0.008046
922,0.011865
923,0.010058
924,0.008462
925,0.008393
926,0.014815
927,0.01287
928,0.011888
929,0.008832
930,0.007903
931,0.007259
932,0.006926
933,0.007676
934,0.007285
935,0.007631
936,0.00968
937,0.009314
938,0.00927
939,0.009757
940,0.010473
941,0.009995
942,0.009934
943,0.011346
944,0.010962
945,0.009445
946,0.007068
947,0.006861
948,0.007242
949,0.008711
950,0.007697
951,0.012728
952,0.014783
953,0.012256
954,0.007195
955,0.007304
956,0.007762
957,0.007926
958,0.007967
959,0.008525
960,0.015019
961,0.008376
962,0.008502
963,0.007952
964,0.008747
965,0.009213
966,0.009307
967,0.008231
968,0.007246
969,0.00705
970,0.007445
971,0.00971
972,0.010074
973,0.008984
974,0.007978
975,0.007914
976,0.00892
977,0.010165
978,0.009142
979,0.007115
980,0.00763
981,0.007808
982,0.009475
983,0.007535
984,0.006602
985,0.008214
986,0.009871
987,0.010166
988,0.008114
989,0.008102
990,0.008202
991,0.007245
992,0.008403
993,0.009109
994,0.008267
995,0.008824
996,0.008279
997,0.009806
998,0.01563
999,0.011302
1000,0.010233
1001,0.011606
1002,0.010088
1003,0.010192
1004,0.009844
1005,0.009391
1006,0.009225
1007,0.009376
1008,0.007964
1009,0.00851
1010,0.00818
1011,0.008119
1012,0.008073
1013,0.007304
1014,0.006756
1015,0.007
1016,0.009059
1017,0.008806
1018,0.008831
1019,0.009088
1020,0.015067
1021,0.013038
1022,0.013777
1023,0.010754
1024,0.01069
1025,0.008747
1026,0.008775
1027,0.006478
1028,0.006858
1029,0.007359
1030,0.007096
1031,0.007073
1032,0.007192
1033,0.008515
1034,0.00888
1035,0.008096
1036,0.007674
1037,0.009357
1038,0.010617
1039,0.008607
1040,0.009371
1041,0.008996
1042,0.009101
1043,0.007469
1044,0.009281
1045,0.009708
1046,0.00809
1047,0.007969
1048,0.008723
1049,0.008883
1050,0.008982
1051,0.009763
1052,0.005922
1053,0.009305
1054,0.009471
1055,0.010421
1056,0.009967
1057,0.008093
1058,0.008886
1059,0.015956
1060,0.013358
1061,0.013987
1062,0.010104
1063,0.00729
1064,0.006413
1065,0.007758
1066,0.007297
1067,0.008236
1068,0.007718
1069,0.00707
1070,0.007278
1071,0.010378
1072,0.006847
1073,0.00946
1074,0.007219
1075,0.009331
1076,0.008006
1077,0.007114
1078,0.010953
1079,0.007044
1080,0.007284
1081,0.007685
1082,0.007081
1083,0.007384
1084,0.00783
1085,0.007136
1086,0.007835
1087,0.011139
1088,0.013828
1089,0.009055
1090,0.009448
1091,0.009682
1092,0.010837
1093,0.010208
1094,0.00978
1095,0.010052
1096,0.007765
1097,0.006957
1098,0.008002
1099,0.007488
1100,0.007599
1101,0.009255
1102,0.010171
1103,0.007383
1104,0.007549
1105,0.00776
1106,0.010152
1107,0.009227
1108,0.008482
1109,0.009273
1110,0.009182
1111,0.008137
1112,0.006758
1113,0.007492
1114,0.007401
1115,0.007297
1116,0.009155
1117,0.007607
1118,0.007709
1119,0.006662
1120,0.008384
1121,0.007897
1122,0.007966
1123,0.007978
1124,0.007941
1125,0.008063
1126,0.007704
1127,0.00769
1128,0.009039
1129,0.00757
1130,0.009807
1131,0.010096
1132,0.010921
1133,0.010576
1134,0.010073
1135,0.008179
1136,0.007241
1137,0.007167
1138,0.007836
1139,0.01161
1140,0.006827
1141,0.008077
1142,0.008892
1143,0.009214
1144,0.007366
1145,0.007719
1146,0.009456
1147,0.009158
1148,0.006795
1149,0.007013
1150,0.008227
1151,0.007775
1152,0.008379
1153,0.010593
1154,0.011687
1155,0.012197
1156,0.007115
1157,0.008186
1158,0.007982
1159,0.007504
1160,0.007569
1161,0.009102
1162,0.008198
1163,0.009355
1164,0.009979
1165,0.008472
1166,0.007513
1167,0.008178
1168,0.008701
1169,0.009093
1170,0.006773
1171,0.019477
1172,0.007289
1173,0.007858
1174,0.008845
1175,0.006418
1176,0.008124
1177,0.011517
1178,0.015114
1179,0.011501
1180,0.013679
1181,0.009337
1182,0.008774
1183,0.008608
1184,0.006724
1185,0.00823
1186,0.010201
1187,0.011075
1188,0.010757
1189,0.009908
1190,0.014324
1191,0.012945
1192,0.012502
1193,0.008244
1194,0.009955
1195,0.007812
1196,0.00725
1197,0.007651
1198,0.007834
1199,0.006469
1200,0.007642
1201,0.008985
1202,0.00716
1203,0.009255
1204,0.008944
1205,0.007596
1206,0.008769
1207,0.008148
1208,0.008006
1209,0.009549
1210,0.012712
1211,0.010538
1212,0.010069
1213,0.009707
1214,0.008707
1215,0.008288
1216,0.00662
1217,0.009661
1218,0.008225
1219,0.008184
1220,0.007621
1221,0.009627
1222,0.009611
1223,0.009229
1224,0.006975
1225,0.007388
1226,0.008471
1227,0.007635
1228,0.006957
1229,0.007902
1230,0.008565
1231,0.007606
1232,0.007621
1233,0.008035
1234,0.009505
1235,0.009678
1236,0.009558
1237,0.009529
1238,0.009225
1239,0.010542
1240,0.011282
1241,0.009192
1242,0.008802
1243,0.010333
1244,0.022808
1245,0.008345
1246,0.009663
1247,0.007155
1248,0.007697
1249,0.007767
