0,0.03
1,0.01
2,0.06
3,0
4,0.03
5,0
6,0.02
7,0
8,0.04
9,0
0,0.03
1,0
2,0.02
3,0
4,0.04
5,0
6,0.03
7,0
8,0.03
9,0
0,0.02
1,0.01
2,0.03
3,0
0,0.19
1,0.01
2,0.06
3,0
4,0.07
5,0
6,0.1
7,0
8,0.04
9,0
10,0.1
11,0.01
12,0.04
13,0
14,0.13
15,0
16,0.05
17,0
18,0.1
19,0
20,0.03
21,0.01
22,0.04
23,0
24,0.27
25,0.01
26,0.17
27,0
28,0.09
29,0
30,0.05
31,0
32,0.04
33,0.08
34,0
35,0.05
36,0.08
37,0
38,0.21
39,0
0,0.037896
1,0.031049
2,0.031955
3,0.0287
4,0.028879
5,0.030312
6,0.028698
7,0.028897
8,0.032081
9,0.028563
10,0.028504
11,0.03022
12,0.032303
13,0.032091
14,0.031968
15,0.031931
16,0.032088
17,0.032174
18,0.03198
19,0.028736
20,0.03063
21,0.032206
22,0.029074
23,0.031967
24,0.026657
25,0.029781
26,0.032102
27,0.031982
28,0.032071
29,0.030966
30,0.029818
31,0.032019
32,0.032188
33,0.032077
34,0.026751
35,0.030458
36,0.032172
37,0.030899
38,0.028526
39,0.0321
40,0.03097
41,0.028641
42,0.032329
43,0.030964
44,0.02336
45,0.032157
46,0.03091
47,0.028662
48,0.032255
49,0.031105
50,0.028474
51,0.032144
52,0.029882
53,0.028545
54,0.032181
55,0.029672
56,0.028467
57,0.031033
58,0.031065
59,0.028445
60,0.031963
61,0.030913
62,0.028959
63,0.030916
64,0.030945
65,0.028448
66,0.03218
67,0.031059
68,0.026709
69,0.032107
70,0.030733
71,0.028527
72,0.032039
73,0.030798
74,0.028056
75,0.032065
76,0.030919
77,0.028366
78,0.032082
79,0.026415
80,0.028534
81,0.031987
82,0.029155
83,0.028515
84,0.032253
85,0.026485
86,0.028299
87,0.027742
88,0.022011
89,0.024213
90,0.032197
91,0.029237
92,0.028392
93,0.029061
94,0.028616
95,0.021486
96,0.032102
97,0.026616
98,0.026865
99,0.032002
100,0.029157
101,0.02677
102,0.032158
103,0.029728
104,0.025131
105,0.032125
106,0.029723
107,0.026808
108,0.029017
109,0.029575
110,0.026191
111,0.032005
112,0.026691
113,0.027314
114,0.032289
115,0.026561
116,0.028443
117,0.032219
118,0.029708
119,0.028493
120,0.032116
121,0.029645
122,0.026664
123,0.032002
124,0.029659
125,0.028617
126,0.032528
127,0.027921
128,0.028387
129,0.030842
130,0.025526
131,0.028518
132,0.032189
133,0.02494
134,0.027715
135,0.030966
136,0.023953
137,0.02848
138,0.027468
139,0.026878
140,0.027918
141,0.032024
142,0.027945
143,0.024863
144,0.03077
145,0.026477
146,0.028455
147,0.032114
148,0.029742
149,0.028513
150,0.029022
151,0.029654
152,0.028493
153,0.032185
154,0.024042
155,0.024374
156,0.03202
157,0.029859
158,0.028445
159,0.032114
160,0.02669
161,0.028522
162,0.03207
163,0.026452
164,0.024894
165,0.027687
166,0.029624
167,0.028448
168,0.030411
169,0.029597
170,0.024395
171,0.03046
172,0.029723
173,0.025927
174,0.026121
175,0.028156
176,0.02851
177,0.030525
178,0.029877
179,0.027783
180,0.03197
181,0.026273
182,0.027826
183,0.032212
184,0.026402
185,0.027338
186,0.03192
187,0.025786
188,0.025365
189,0.029221
190,0.025073
191,0.023339
192,0.026584
193,0.026746
194,0.024097
195,0.032334
196,0.02964
197,0.025327
198,0.032244
199,0.029928
200,0.028542
201,0.030283
202,0.02964
203,0.025011
204,0.027819
205,0.029913
206,0.025068
207,0.032007
208,0.028725
209,0.026845
210,0.027812
211,0.030052
212,0.015488
213,0.024463
214,0.027899
215,0.027971
216,0.032054
217,0.028025
218,0.028522
219,0.026474
220,0.028827
221,0.023499
222,0.024582
223,0.028864
224,0.023976
225,0.032444
226,0.028963
227,0.028612
228,0.031909
229,0.028881
230,0.02797
231,0.032175
232,0.028911
233,0.02863
234,0.027388
235,0.029632
236,0.028451
237,0.032424
238,0.029847
239,0.028659
240,0.031964
241,0.029472
242,0.028453
243,0.03241
244,0.024446
245,0.02856
246,0.031932
247,0.029557
248,0.028479
249,0.032228
250,0.029709
251,0.028437
252,0.030279
253,0.02956
254,0.025187
255,0.017288
256,0.017695
257,0.028489
258,0.031975
259,0.025654
260,0.027441
261,0.027255
262,0.029595
263,0.028093
264,0.024269
265,0.029713
266,0.028476
267,0.030652
268,0.025975
269,0.018146
270,0.026059
271,0.027168
272,0.028535
273,0.026117
274,0.019099
275,0.028695
276,0.025333
277,0.029682
278,0.023446
279,0.030347
280,0.028422
281,0.028377
282,0.030402
283,0.026039
284,0.018717
285,0.030293
286,0.029525
287,0.02847
288,0.027438
289,0.029655
290,0.028434
291,0.030272
292,0.029578
293,0.024141
294,0.024682
295,0.029658
296,0.024534
297,0.030486
298,0.02965
299,0.022875
300,0.031178
301,0.027263
302,0.028531
303,0.027642
304,0.026561
305,0.028579
306,0.027678
307,0.029872
308,0.027992
309,0.032071
310,0.029725
311,0.024939
312,0.032184
313,0.026641
314,0.022345
315,0.032084
316,0.02589
317,0.02858
318,0.032166
319,0.02649
320,0.026123
321,0.032127
322,0.029653
323,0.027974
324,0.023107
325,0.029644
326,0.026011
327,0.030274
328,0.02982
329,0.023858
330,0.030725
331,0.026599
332,0.028443
333,0.030439
334,0.025263
335,0.028486
336,0.025947
337,0.029628
338,0.027874
339,0.030278
340,0.02972
341,0.024871
342,0.030345
343,0.02888
344,0.022101
345,0.031972
346,0.02834
347,0.02768
348,0.032148
349,0.029495
350,0.026173
351,0.027378
352,0.029747
353,0.026885
354,0.027659
355,0.030222
356,0.023055
357,0.031905
358,0.02977
359,0.024214
360,0.03088
361,0.025247
362,0.027618
363,0.031957
364,0.025073
365,0.025842
366,0.030862
367,0.029565
368,0.027562
369,0.032088
370,0.025927
371,0.025752
372,0.031871
373,0.029483
374,0.028504
375,0.030564
376,0.025131
377,0.028636
378,0.030384
379,0.025078
380,0.024046
381,0.029574
382,0.028652
383,0.027847
384,0.028123
385,0.028545
386,0.02454
387,0.030544
388,0.029019
389,0.024085
390,0.030376
391,0.021596
392,0.028506
393,0.029327
394,0.026017
395,0.02843
396,0.025907
397,0.02205
398,0.025576
399,0.032442
400,0.029617
401,0.027891
402,0.032043
403,0.029872
404,0.019662
405,0.030084
406,0.029818
407,0.028655
408,0.032269
409,0.025567
410,0.028529
411,0.02639
412,0.026788
413,0.02804
414,0.027674
415,0.028533
416,0.027419
417,0.031993
418,0.02882
419,0.02443
420,0.025239
421,0.029161
422,0.028575
423,0.03214
424,0.029095
425,0.024692
426,0.030679
427,0.029901
428,0.028513
429,0.030661
430,0.028504
431,0.028742
432,0.030758
433,0.027842
434,0.023633
435,0.022455
436,0.025562
437,0.025422
438,0.030544
439,0.026648
440,0.022455
441,0.025062
442,0.027148
443,0.027586
444,0.027021
445,0.024508
446,0.025358
447,0.027653
448,0.029006
449,0.02822
450,0.024763
451,0.030122
452,0.028609
453,0.031163
454,0.029981
455,0.02858
456,0.032128
457,0.029769
458,0.019157
459,0.028466
460,0.027823
461,0.02386
462,0.028074
463,0.029588
464,0.024741
465,0.032032
466,0.029507
467,0.027831
468,0.031918
469,0.026347
470,0.028406
471,0.027591
472,0.029716
473,0.028613
474,0.026052
475,0.029836
476,0.028071
477,0.026452
478,0.029641
479,0.028462
480,0.029176
481,0.028535
482,0.028565
483,0.030373
484,0.027187
485,0.026788
486,0.03043
487,0.029656
488,0.027647
489,0.029007
490,0.025526
491,0.02841
492,0.030344
493,0.029716
494,0.027965
495,0.03046
496,0.02974
497,0.023961
498,0.030377
499,0.029821
500,0.028421
501,0.029381
502,0.026473
503,0.028409
504,0.025859
505,0.026579
506,0.027293
507,0.030477
508,0.029038
509,0.028341
510,0.030312
511,0.026157
512,0.02846
513,0.03041
514,0.029651
515,0.024231
516,0.029308
517,0.029668
518,0.028592
519,0.030449
520,0.029598
521,0.027505
522,0.030369
523,0.029031
524,0.027603
525,0.032105
526,0.025993
527,0.027615
528,0.032201
529,0.024109
530,0.027629
531,0.030349
532,0.02962
533,0.027645
534,0.027589
535,0.028468
536,0.02774
537,0.03199
538,0.029594
539,0.027706
540,0.032017
541,0.029727
542,0.024113
543,0.032021
544,0.029651
545,0.0284
546,0.032253
547,0.022538
548,0.028609
549,0.027714
550,0.02966
551,0.028603
552,0.030573
553,0.029656
554,0.028667
555,0.033596
556,0.028509
557,0.027354
558,0.031002
559,0.030986
560,0.028516
561,0.03091
562,0.030912
563,0.027449
564,0.029834
565,0.031007
566,0.028531
567,0.030883
568,0.030961
569,0.028554
570,0.031099
571,0.026536
572,0.028507
573,0.030854
574,0.030927
575,0.028605
576,0.02399
577,0.030933
578,0.028439
579,0.030047
580,0.031416
581,0.025513
582,0.030166
583,0.027931
584,0.028507
585,0.030082
586,0.031006
587,0.027886
588,0.029315
589,0.028724
590,0.027279
591,0.02607
592,0.031188
593,0.028069
594,0.029393
595,0.030897
596,0.028659
597,0.029505
598,0.030515
599,0.028692
600,0.029539
601,0.026002
602,0.017062
603,0.015629
604,0.029898
605,0.027425
606,0.028136
607,0.030526
608,0.024774
609,0.028625
610,0.02966
611,0.022287
612,0.022743
613,0.022658
614,0.012286
615,0.018005
616,0.025291
617,0.019455
618,0.018525
619,0.013768
620,0.028983
621,0.028608
622,0.029622
623,0.031038
624,0.028908
625,0.017835
626,0.01929
627,0.018988
628,0.018272
629,0.028493
630,0.024308
631,0.025281
632,0.029624
633,0.022503
634,0.022514
635,0.02883
636,0.020011
637,0.023321
638,0.011143
639,0.021576
640,0.024985
641,0.01948
642,0.020053
643,0.023345
644,0.019932
645,0.023108
646,0.016823
647,0.019794
648,0.021493
649,0.012931
650,0.019234
651,0.022929
652,0.01802
653,0.024794
654,0.018559
655,0.0263
656,0.01679
657,0.021542
658,0.016834
659,0.021487
660,0.017265
661,0.021846
662,0.017292
663,0.022545
664,0.023683
665,0.039294
666,0.026765
667,0.026277
668,0.025425
669,0.026838
670,0.03215
671,0.027994
672,0.026672
673,0.02516
674,0.028542
675,0.025921
676,0.032092
677,0.021352
678,0.01914
679,0.026398
680,0.024477
681,0.024464
682,0.031018
683,0.02759
684,0.029754
685,0.027482
686,0.027471
687,0.028362
688,0.027264
689,0.025562
690,0.026112
691,0.030558
692,0.028582
693,0.029779
694,0.020166
695,0.02048
696,0.020082
697,0.016569
698,0.017071
699,0.018136
700,0.025488
701,0.028476
702,0.025423
703,0.028889
704,0.027211
705,0.028031
706,0.029467
707,0.023957
708,0.028258
709,0.024414
710,0.022976
711,0.027367
712,0.020071
713,0.022531
714,0.021617
715,0.031219
716,0.025131
717,0.028931
718,0.023808
719,0.023731
720,0.021305
721,0.028583
722,0.020875
723,0.027423
724,0.02443
725,0.023365
726,0.027371
727,0.027844
728,0.028431
729,0.027906
730,0.029454
731,0.026851
732,0.028282
733,0.028885
734,0.026795
735,0.028843
736,0.031021
737,0.022986
738,0.029746
739,0.027418
740,0.023405
741,0.027876
742,0.030479
743,0.02583
744,0.029688
745,0.030758
746,0.025357
747,0.028751
748,0.03218
749,0.023074
750,0.02713
751,0.030852
752,0.025571
753,0.028889
754,0.031996
755,0.013108
756,0.014109
757,0.028453
758,0.028514
759,0.021808
760,0.028377
761,0.0246
762,0.028104
763,0.031019
764,0.028353
765,0.028908
766,0.031782
767,0.026801
768,0.028988
769,0.030708
770,0.018573
771,0.01887
772,0.020875
773,0.015853
774,0.014374
775,0.02672
776,0.025905
777,0.022808
778,0.023527
779,0.020394
780,0.026215
781,0.02451
782,0.020274
783,0.023994
784,0.031015
785,0.026319
786,0.029729
787,0.032285
788,0.022644
789,0.028339
790,0.030711
791,0.020052
792,0.018911
793,0.023709
794,0.016298
795,0.016546
796,0.031325
797,0.022627
798,0.023492
799,0.025355
800,0.022313
801,0.026025
802,0.019263
803,0.01567
804,0.019127
805,0.015938
806,0.011554
807,0.01699
808,0.019962
809,0.021102
810,0.017386
811,0.022722
812,0.018329
813,0.018859
814,0.021955
815,0.028476
816,0.025004
817,0.024939
818,0.020721
819,0.020609
820,0.028679
821,0.024885
822,0.026482
823,0.032203
824,0.028481
825,0.021954
826,0.03032
827,0.027818
828,0.024533
829,0.030261
830,0.024803
831,0.028772
832,0.025715
833,0.026054
834,0.028879
835,0.025935
836,0.028394
837,0.028874
838,0.029084
839,0.028516
840,0.028603
841,0.022267
842,0.024276
843,0.029623
844,0.030239
845,0.028517
846,0.029911
847,0.025854
848,0.025346
849,0.029711
850,0.030375
851,0.028438
852,0.021636
853,0.017282
854,0.02014
855,0.029651
856,0.029127
857,0.028501
858,0.029739
859,0.03029
860,0.027911
861,0.028609
862,0.02775
863,0.028752
864,0.026057
865,0.028057
866,0.02789
867,0.029611
868,0.030304
869,0.028483
870,0.028739
871,0.028893
872,0.021232
873,0.029843
874,0.031801
875,0.0279
876,0.028505
877,0.03197
878,0.028436
879,0.029617
880,0.032387
881,0.028648
882,0.02531
883,0.03207
884,0.028549
885,0.029651
886,0.032245
887,0.028532
888,0.029796
889,0.032016
890,0.028675
891,0.029783
892,0.027758
893,0.028593
894,0.029712
895,0.032175
896,0.028453
897,0.029596
898,0.032211
899,0.028552
900,0.0297
901,0.032083
902,0.028438
903,0.028512
904,0.032926
905,0.02862
906,0.029755
907,0.03207
908,0.0278
909,0.019422
910,0.022033
911,0.028773
912,0.029957
913,0.024624
914,0.020624
915,0.028237
916,0.021247
917,0.026161
918,0.023743
919,0.023095
920,0.02358
921,0.017161
922,0.013872
923,0.021681
924,0.016451
925,0.021046
926,0.021665
927,0.022441
928,0.023081
929,0.028605
930,0.018804
931,0.016727
932,0.0185
933,0.024446
934,0.027875
935,0.027638
936,0.02773
937,0.026861
938,0.029276
939,0.023982
940,0.029918
941,0.03068
942,0.028593
943,0.029929
944,0.030803
945,0.028442
946,0.025615
947,0.030648
948,0.027698
949,0.030712
950,0.02664
951,0.025356
952,0.027172
953,0.03077
954,0.027649
955,0.030832
956,0.030916
957,0.02787
958,0.030865
959,0.027037
960,0.027662
961,0.030691
962,0.026478
963,0.027948
964,0.030622
965,0.030807
966,0.028592
967,0.031007
968,0.030962
969,0.027832
970,0.029836
971,0.030826
972,0.02333
973,0.030848
974,0.029752
975,0.028586
976,0.030895
977,0.030058
978,0.028496
979,0.029546
980,0.030084
981,0.028516
982,0.030622
983,0.028554
984,0.027845
985,0.030829
986,0.029902
987,0.024219
988,0.030684
989,0.028206
990,0.028353
991,0.030862
992,0.024007
993,0.024719
994,0.0309
995,0.029307
996,0.024797
997,0.030078
998,0.026605
999,0.028026
1000,0.030969
1001,0.030935
1002,0.028535
1003,0.031045
1004,0.030988
1005,0.028497
1006,0.031003
1007,0.030858
1008,0.028505
1009,0.030819
1010,0.030978
1011,0.028461
1012,0.030924
1013,0.029984
1014,0.024168
1015,0.031077
1016,0.030921
1017,0.028531
1018,0.030998
1019,0.030717
1020,0.028503
1021,0.030902
1022,0.028376
1023,0.028697
1024,0.030858
1025,0.030812
1026,0.028584
1027,0.030956
1028,0.030899
1029,0.02852
1030,0.030026
1031,0.026769
1032,0.026281
1033,0.028964
1034,0.030834
1035,0.028386
1036,0.02991
1037,0.029927
1038,0.028459
1039,0.030043
1040,0.029942
1041,0.028391
1042,0.025682
1043,0.030196
1044,0.028453
1045,0.030852
1046,0.029271
1047,0.028439
1048,0.030812
1049,0.029455
1050,0.025206
1051,0.031705
1052,0.026303
1053,0.028666
1054,0.028604
1055,0.031008
1056,0.028519
1057,0.030866
1058,0.031151
1059,0.027892
1060,0.03095
1061,0.030961
1062,0.026015
1063,0.02972
1064,0.029781
1065,0.028571
1066,0.030385
1067,0.030845
1068,0.028636
1069,0.029601
1070,0.030873
1071,0.028781
1072,0.023923
1073,0.027213
1074,0.023409
1075,0.030912
1076,0.031007
1077,0.028511
1078,0.02985
1079,0.029961
1080,0.027978
1081,0.030781
1082,0.030053
1083,0.028529
1084,0.03086
1085,0.030085
1086,0.028408
1087,0.030729
1088,0.03032
1089,0.02843
1090,0.030833
1091,0.030072
1092,0.028533
1093,0.030778
1094,0.029066
1095,0.028464
1096,0.027159
1097,0.029945
1098,0.027538
1099,0.030844
1100,0.030843
1101,0.026725
1102,0.030889
1103,0.030613
1104,0.026713
1105,0.03102
1106,0.030465
1107,0.019154
1108,0.024932
1109,0.021955
1110,0.024474
1111,0.030227
1112,0.027767
1113,0.02704
1114,0.025853
1115,0.03129
1116,0.027835
1117,0.026066
1118,0.030984
1119,0.023229
1120,0.032395
1121,0.02874
1122,0.027879
1123,0.031129
1124,0.031309
1125,0.027654
1126,0.030697
1127,0.031026
1128,0.026487
1129,0.029683
1130,0.030857
1131,0.027706
1132,0.030843
1133,0.031111
1134,0.023777
1135,0.030859
1136,0.028537
1137,0.027195
1138,0.03007
1139,0.029917
1140,0.026944
1141,0.029656
1142,0.021409
1143,0.026969
1144,0.031055
1145,0.030871
1146,0.02864
1147,0.029745
1148,0.029504
1149,0.027673
1150,0.029735
1151,0.027886
1152,0.028687
1153,0.014271
1154,0.019614
1155,0.027932
1156,0.029182
1157,0.022607
1158,0.027652
1159,0.027283
1160,0.029007
1161,0.025883
1162,0.016365
1163,0.03094
1164,0.021968
1165,0.027394
1166,0.027093
1167,0.028558
1168,0.026753
1169,0.020553
1170,0.026927
1171,0.030898
1172,0.026323
1173,0.026734
1174,0.028038
1175,0.030756
1176,0.023212
1177,0.030703
1178,0.030713
1179,0.026759
1180,0.03072
1181,0.029023
1182,0.024099
1183,0.030817
1184,0.030978
1185,0.027457
1186,0.030879
1187,0.025253
1188,0.027615
1189,0.027096
1190,0.029114
1191,0.027623
1192,0.028078
1193,0.028128
1194,0.027459
1195,0.030878
1196,0.025156
1197,0.023047
1198,0.030882
1199,0.02904
1200,0.027669
1201,0.030992
1202,0.026686
1203,0.027674
1204,0.029916
1205,0.030339
1206,0.027727
1207,0.03013
1208,0.030679
1209,0.02761
1210,0.029921
1211,0.030906
1212,0.024957
1213,0.030102
1214,0.0298
1215,0.028527
1216,0.028834
1217,0.030953
1218,0.028512
1219,0.028973
1220,0.030878
1221,0.028473
1222,0.030037
1223,0.030876
1224,0.027959
1225,0.029967
1226,0.028454
1227,0.028402
1228,0.030055
1229,0.028773
1230,0.028406
1231,0.025465
1232,0.029735
1233,0.02448
1234,0.02877
1235,0.029986
1236,0.027891
1237,0.029974
1238,0.030652
1239,0.027585
1240,0.030038
1241,0.031078
1242,0.027647
1243,0.03002
1244,0.030643
1245,0.027571
1246,0.030979
1247,0.029333
1248,0.024368
1249,0.019582
1250,0.029327
1251,0.025344
1252,0.031812
1253,0.022944
1254,0.027688
1255,0.030845
1256,0.031018
1257,0.023332
1258,0.030987
1259,0.02503
1260,0.018222
1261,0.02342
1262,0.018078
1263,0.014209
1264,0.027659
1265,0.022184
1266,0.028392
1267,0.013678
1268,0.021937
1269,0.016382
1270,0.022234
1271,0.024827
1272,0.022115
1273,0.023394
1274,0.02985
1275,0.028409
1276,0.029186
1277,0.024776
1278,0.028469
1279,0.029113
1280,0.030736
1281,0.028582
1282,0.029154
1283,0.026861
1284,0.025341
1285,0.030779
1286,0.030774
1287,0.027769
1288,0.028251
1289,0.028649
1290,0.019622
1291,0.027849
1292,0.015772
1293,0.014481
1294,0.018154
1295,0.030755
1296,0.028516
1297,0.021812
1298,0.027103
1299,0.027051
1300,0.030803
1301,0.030768
1302,0.025236
1303,0.030684
1304,0.026504
1305,0.02328
1306,0.024855
1307,0.027634
1308,0.021134
1309,0.022133
1310,0.019446
1311,0.027732
1312,0.031113
1313,0.018449
1314,0.02596
1315,0.021697
1316,0.027251
1317,0.017813
1318,0.022212
1319,0.019225
1320,0.021649
1321,0.026866
1322,0.019833
1323,0.022251
1324,0.018782
1325,0.02478
1326,0.026896
1327,0.029072
1328,0.031016
1329,0.028136
1330,0.026334
1331,0.02957
1332,0.026143
1333,0.030986
1334,0.029875
1335,0.023766
1336,0.02592
1337,0.021008
1338,0.028583
1339,0.029732
1340,0.030863
1341,0.028495
1342,0.031117
1343,0.030897
1344,0.028613
1345,0.030855
1346,0.027928
1347,0.028798
1348,0.030803
1349,0.031483
1350,0.028623
1351,0.030904
1352,0.02838
1353,0.028505
1354,0.030782
1355,0.030791
1356,0.028557
1357,0.02611
1358,0.030888
1359,0.028078
1360,0.030875
1361,0.030878
1362,0.028396
1363,0.030868
1364,0.031019
1365,0.028456
1366,0.030738
1367,0.028529
1368,0.028456
1369,0.029845
1370,0.030853
1371,0.028627
1372,0.030997
1373,0.030973
1374,0.024247
1375,0.030961
1376,0.030951
1377,0.028504
1378,0.030824
1379,0.030916
1380,0.02415
1381,0.030921
1382,0.027908
1383,0.024574
1384,0.022049
1385,0.015161
1386,0.023672
1387,0.026414
1388,0.030752
1389,0.026732
1390,0.030778
1391,0.02916
1392,0.015432
1393,0.021522
1394,0.021211
1395,0.021213
1396,0.018722
1397,0.0176
1398,0.023888
1399,0.028406
1400,0.020476
1401,0.017949
1402,0.02633
1403,0.022433
1404,0.022478
1405,0.028084
1406,0.030947
1407,0.02609
1408,0.029276
1409,0.026983
1410,0.024003
1411,0.029108
1412,0.030867
1413,0.028435
1414,0.029229
1415,0.030781
1416,0.028381
1417,0.024684
1418,0.030777
1419,0.02843
1420,0.029178
1421,0.029635
1422,0.0238
1423,0.029136
1424,0.031188
1425,0.028434
1426,0.030923
1427,0.030764
1428,0.028294
1429,0.026257
1430,0.030775
1431,0.028353
1432,0.026474
1433,0.023059
1434,0.016993
1435,0.016006
1436,0.028179
1437,0.025098
1438,0.024989
1439,0.02667
1440,0.028583
1441,0.029769
1442,0.026177
1443,0.02787
1444,0.023536
1445,0.014267
1446,0.017195
1447,0.022207
1448,0.026951
1449,0.021848
1450,0.025015
1451,0.031121
1452,0.027171
1453,0.021359
1454,0.022119
1455,0.023235
1456,0.026958
1457,0.025663
1458,0.03116
1459,0.028
1460,0.025757
1461,0.030764
1462,0.027988
1463,0.025899
1464,0.031071
1465,0.024821
1466,0.015911
1467,0.026391
1468,0.028923
1469,0.014042
1470,0.024931
1471,0.022797
1472,0.023028
1473,0.0226
1474,0.018167
1475,0.016837
1476,0.02787
1477,0.020076
1478,0.014745
1479,0.025661
1480,0.032071
1481,0.02738
1482,0.018381
1483,0.028306
1484,0.024166
1485,0.029147
1486,0.02479
1487,0.027543
1488,0.029178
1489,0.026834
1490,0.027382
1491,0.025787
1492,0.02937
1493,0.022419
1494,0.025582
1495,0.021854
1496,0.018456
1497,0.029339
1498,0.032211
1499,0.025711
1500,0.030735
1501,0.032254
1502,0.025585
1503,0.03104
1504,0.031933
1505,0.025027
1506,0.026458
1507,0.032062
1508,0.025551
1509,0.030968
1510,0.031991
1511,0.025627
1512,0.03077
1513,0.030858
1514,0.025649
1515,0.030908
1516,0.027679
1517,0.025585
1518,0.030833
1519,0.032134
1520,0.025624
1521,0.031126
1522,0.028839
1523,0.02558
1524,0.03096
1525,0.030593
1526,0.027242
1527,0.030904
1528,0.030176
1529,0.027296
1530,0.025986
1531,0.030461
1532,0.027229
1533,0.029736
1534,0.030336
1535,0.023381
1536,0.026407
1537,0.026322
1538,0.027127
1539,0.029672
1540,0.030195
1541,0.027049
1542,0.026485
1543,0.030394
1544,0.027128
1545,0.030897
1546,0.027624
1547,0.024701
1548,0.029305
1549,0.02915
1550,0.027115
1551,0.029191
1552,0.03017
1553,0.027137
1554,0.026643
1555,0.025995
1556,0.027225
1557,0.029061
1558,0.030349
1559,0.027148
1560,0.029202
1561,0.030529
1562,0.027122
1563,0.029001
1564,0.03007
1565,0.027137
1566,0.031107
1567,0.030714
1568,0.027149
1569,0.029096
1570,0.030156
1571,0.027251
1572,0.029182
1573,0.030384
1574,0.027223
1575,0.029119
1576,0.030504
1577,0.027252
1578,0.029227
1579,0.030403
1580,0.026445
1581,0.03084
1582,0.03031
1583,0.026371
1584,0.03098
1585,0.023307
1586,0.022817
1587,0.030866
1588,0.03209
1589,0.027398
1590,0.030935
1591,0.023413
1592,0.021953
1593,0.030977
1594,0.030481
1595,0.027392
1596,0.027366
1597,0.026342
1598,0.027359
1599,0.026444
1600,0.03198
1601,0.026601
1602,0.027823
1603,0.032056
1604,0.026595
1605,0.027792
1606,0.027842
1607,0.023491
1608,0.030972
1609,0.032237
1610,0.026542
1611,0.030905
1612,0.032183
1613,0.026498
1614,0.031061
1615,0.02588
1616,0.027613
1617,0.025242
1618,0.032163
1619,0.02736
1620,0.030916
1621,0.03201
1622,0.027307
1623,0.03104
1624,0.032455
1625,0.027204
1626,0.026573
1627,0.032071
1628,0.027338
1629,0.029954
1630,0.032093
1631,0.026434
1632,0.030829
1633,0.0319
1634,0.026463
1635,0.027066
1636,0.027944
1637,0.023981
1638,0.030885
1639,0.032083
1640,0.023237
1641,0.030951
1642,0.027632
1643,0.026415
1644,0.029867
1645,0.028852
1646,0.019705
1647,0.026595
1648,0.032124
1649,0.026481
1650,0.030848
1651,0.031954
1652,0.025816
1653,0.030835
1654,0.032341
1655,0.026384
1656,0.026939
1657,0.032029
1658,0.026446
1659,0.029667
1660,0.032111
1661,0.026468
1662,0.030823
1663,0.031999
1664,0.026456
1665,0.030876
1666,0.02769
1667,0.026414
1668,0.030734
1669,0.031963
1670,0.02642
1671,0.03085
1672,0.03216
1673,0.027269
1674,0.021746
1675,0.030317
1676,0.027188
1677,0.030306
1678,0.032528
1679,0.025847
1680,0.030956
1681,0.032163
1682,0.024794
1683,0.030995
1684,0.032225
1685,0.024755
1686,0.026396
1687,0.029284
1688,0.027241
1689,0.030342
1690,0.02815
1691,0.027229
1692,0.026086
1693,0.032001
1694,0.026764
1695,0.030227
1696,0.032114
1697,0.026477
1698,0.030749
1699,0.032319
1700,0.026366
1701,0.030755
1702,0.029179
1703,0.024753
1704,0.030097
1705,0.03047
1706,0.027342
1707,0.030903
1708,0.030414
1709,0.027295
1710,0.029885
1711,0.030361
1712,0.027163
1713,0.028256
1714,0.031978
1715,0.022667
1716,0.024072
1717,0.023086
1718,0.022732
1719,0.024391
1720,0.02157
1721,0.018312
1722,0.018391
1723,0.016197
1724,0.016546
1725,0.022212
1726,0.020637
1727,0.02499
1728,0.023791
1729,0.015778
1730,0.018061
1731,0.025285
1732,0.02715
1733,0.016881
1734,0.013723
1735,0.029317
1736,0.022768
1737,0.016671
1738,0.024112
1739,0.026813
1740,0.014217
1741,0.027581
1742,0.013003
1743,0.026831
1744,0.01961
1745,0.021722
1746,0.017971
1747,0.026869
1748,0.018611
1749,0.028494
1750,0.027022
1751,0.02129
1752,0.019172
1753,0.016114
1754,0.023164
1755,0.027648
1756,0.028874
1757,0.027546
1758,0.025708
1759,0.027366
1760,0.023515
1761,0.027587
1762,0.025334
1763,0.02681
1764,0.025889
1765,0.028934
1766,0.02319
1767,0.021853
1768,0.028528
1769,0.026159
1770,0.029656
1771,0.029641
1772,0.019681
1773,0.030966
1774,0.024268
1775,0.028473
1776,0.028306
1777,0.029876
1778,0.024018
1779,0.032228
1780,0.029744
1781,0.021783
1782,0.03215
1783,0.029542
1784,0.027418
1785,0.032339
1786,0.029808
1787,0.028598
1788,0.032002
1789,0.029077
1790,0.027115
1791,0.032074
1792,0.028843
1793,0.0278
1794,0.025462
1795,0.029341
1796,0.01921
1797,0.032416
1798,0.029081
1799,0.028496
1800,0.027484
1801,0.029735
1802,0.02855
1803,0.026171
1804,0.028517
1805,0.017974
1806,0.025899
1807,0.022325
1808,0.026751
1809,0.02619
1810,0.027068
1811,0.020815
1812,0.021641
1813,0.02969
1814,0.028481
1815,0.031993
1816,0.021446
1817,0.023911
1818,0.030209
1819,0.028703
1820,0.028339
1821,0.030206
1822,0.028451
1823,0.027565
1824,0.032085
1825,0.029141
1826,0.016452
1827,0.021252
1828,0.028202
1829,0.02868
1830,0.030857
1831,0.028031
1832,0.028692
1833,0.031998
1834,0.027993
1835,0.028525
1836,0.032054
1837,0.028044
1838,0.028495
1839,0.032357
1840,0.026635
1841,0.028501
1842,0.032103
1843,0.027883
1844,0.028458
1845,0.025368
1846,0.021326
1847,0.028591
1848,0.02728
1849,0.026641
0,0.009505
1,0.00847
2,0.010964
3,0.012761
4,0.013041
5,0.010975
6,0.010958
7,0.012569
8,0.011241
9,0.011304
10,0.012464
11,0.010954
12,0.010811
13,0.012879
14,0.010806
15,0.010712
16,0.012917
17,0.010954
18,0.010668
19,0.012773
20,0.010793
21,0.010733
22,0.013091
23,0.010992
24,0.010949
25,0.012601
26,0.010812
27,0.010949
28,0.012778
29,0.010619
30,0.011263
31,0.012673
32,0.010891
33,0.011065
34,0.012482
35,0.011357
36,0.010588
37,0.012484
38,0.009633
39,0.010942
40,0.012612
41,0.011566
42,0.011037
43,0.013025
44,0.009675
45,0.010977
46,0.012956
47,0.00985
48,0.011068
49,0.012605
50,0.009723
51,0.010885
52,0.012764
53,0.009474
54,0.011327
55,0.01121
56,0.011251
57,0.010809
58,0.011285
59,0.011557
60,0.010597
61,0.010916
62,0.011336
63,0.010794
64,0.010979
65,0.01148
66,0.012795
67,0.010938
68,0.011509
69,0.010989
70,0.010875
71,0.011464
72,0.010987
73,0.010916
74,0.01136
75,0.010821
76,0.012745
77,0.011471
78,0.012794
79,0.010942
80,0.011508
81,0.012528
82,0.010801
83,0.011345
84,0.012806
85,0.011116
86,0.011412
87,0.012583
88,0.010887
89,0.011374
90,0.01268
91,0.01105
92,0.011436
93,0.012612
94,0.010802
95,0.011279
96,0.001972
97,0.003858
98,0.001829
99,0.00872
100,0.011492
101,0.010799
102,0.012596
103,0.011457
104,0.011111
105,0.012636
106,0.011377
107,0.010879
108,0.012503
109,0.011321
110,0.010944
111,0.01267
112,0.011388
113,0.010831
114,0.012575
115,0.011388
116,0.01098
117,0.012741
118,0.011561
119,0.008221
120,0.012753
121,0.011423
122,0.012962
123,0.013242
124,0.011576
125,0.012581
126,0.012772
127,0.011444
128,0.012601
129,0.012705
130,0.011533
131,0.012876
132,0.012937
133,0.011501
134,0.0126
135,0.012718
136,0.011518
137,0.012602
138,0.012589
139,0.011395
140,0.012529
141,0.012784
142,0.011645
143,0.012708
144,0.012735
145,0.011476
146,0.012593
147,0.012659
148,0.010962
149,0.012704
150,0.011388
151,0.01141
152,0.012583
153,0.012698
154,0.011541
155,0.012695
156,0.012894
157,0.011493
158,0.012593
159,0.012877
160,0.011637
161,0.01281
162,0.012666
163,0.011503
164,0.012668
165,0.01271
166,0.00909
167,0.011411
168,0.012789
169,0.011541
170,0.012661
171,0.012571
172,0.011194
173,0.013055
174,0.012774
175,0.010941
176,0.012657
177,0.01276
178,0.011567
179,0.012848
180,0.012833
181,0.011568
182,0.012751
183,0.012729
184,0.011491
185,0.012837
186,0.012853
187,0.011523
188,0.012724
189,0.012486
190,0.011434
191,0.012661
192,0.012786
193,0.007975
194,0.012777
195,0.013018
196,0.01173
197,0.014913
198,0.007129
199,0.003755
200,0.012754
201,0.011449
202,0.012593
203,0.012655
204,0.009045
205,0.012673
206,0.012661
207,0.011413
208,0.012695
209,0.012691
210,0.011539
211,0.012779
212,0.012612
213,0.011409
214,0.012591
215,0.012563
216,0.011566
217,0.01276
218,0.012711
219,0.011428
220,0.012688
221,0.012595
222,0.01041
223,0.012839
224,0.012603
225,0.01143
226,0.012722
227,0.01257
228,0.011519
229,0.012738
230,0.012683
231,0.011506
232,0.01267
233,0.012586
234,0.00832
235,0.012832
236,0.012715
237,0.011397
238,0.012569
239,0.012564
240,0.011369
241,0.012718
242,0.012731
243,0.011646
244,0.010935
245,0.012501
246,0.011408
247,0.011002
248,0.01263
249,0.011376
250,0.01077
251,0.012484
252,0.011303
253,0.010875
254,0.012606
255,0.011457
256,0.012725
257,0.01258
258,0.011452
259,0.010791
260,0.013158
261,0.00858
262,0.010913
263,0.012506
264,0.011333
265,0.010813
266,0.012649
267,0.009771
268,0.011005
269,0.012635
270,0.011372
271,0.010791
272,0.012651
273,0.011468
274,0.010915
275,0.012541
276,0.011314
277,0.010832
278,0.012672
279,0.011491
280,0.010986
281,0.012738
282,0.011422
283,0.010825
284,0.01253
285,0.011524
286,0.010977
287,0.012818
288,0.01144
289,0.01091
290,0.012761
291,0.011529
292,0.011231
293,0.008494
294,0.010197
295,0.012739
296,0.012822
297,0.011596
298,0.012763
299,0.012698
300,0.011762
301,0.012667
302,0.012786
303,0.010972
304,0.013
305,0.012789
306,0.011507
307,0.012715
308,0.012652
309,0.011499
310,0.012857
311,0.012834
312,0.0115
313,0.012712
314,0.01273
315,0.011525
316,0.012836
317,0.012493
318,0.011513
319,0.012539
320,0.012548
321,0.011413
322,0.0127
323,0.011552
324,0.011522
325,0.012655
326,0.012679
327,0.011463
328,0.013368
329,0.013306
330,0.011988
331,0.012654
332,0.012628
333,0.011419
334,0.012594
335,0.012764
336,0.011635
337,0.012725
338,0.012613
339,0.011506
340,0.012618
341,0.012737
342,0.009791
343,0.012663
344,0.012533
345,0.009678
346,0.012566
347,0.012604
348,0.009806
349,0.011475
350,0.012556
351,0.009722
352,0.012556
353,0.012588
354,0.009723
355,0.012623
356,0.012551
357,0.009769
358,0.012533
359,0.012493
360,0.009849
361,0.012639
362,0.012581
363,0.009733
364,0.012494
365,0.012467
366,0.009883
367,0.012696
368,0.012539
369,0.009608
370,0.011352
371,0.012463
372,0.009768
373,0.012712
374,0.012633
375,0.009729
376,0.012484
377,0.012453
378,0.00961
379,0.012617
380,0.012618
381,0.009665
382,0.012526
383,0.012522
384,0.009705
385,0.012594
386,0.012761
387,0.009722
388,0.012474
389,0.01253
390,0.009649
391,0.012567
392,0.012647
393,0.009796
394,0.012504
395,0.01253
396,0.009756
397,0.012555
398,0.012791
399,0.009879
400,0.013239
401,0.013052
402,0.009756
403,0.012541
404,0.012678
405,0.009817
406,0.01263
407,0.01268
408,0.009655
409,0.012539
410,0.012653
411,0.010427
412,0.012546
413,0.012495
414,0.0096
415,0.012829
416,0.012684
417,0.009841
418,0.012745
419,0.012727
420,0.009769
421,0.012855
422,0.01286
423,0.01151
424,0.012756
425,0.012629
426,0.011413
427,0.012595
428,0.012954
429,0.011664
430,0.012913
431,0.012805
432,0.00792
433,0.012922
434,0.012823
435,0.011652
436,0.011167
437,0.012697
438,0.011425
439,0.010901
440,0.012595
441,0.011522
442,0.011326
443,0.00969
444,0.011506
445,0.010739
446,0.012541
447,0.011419
448,0.010976
449,0.012673
450,0.011363
451,0.010792
452,0.012487
453,0.011393
454,0.011033
455,0.012688
456,0.01146
457,0.011068
458,0.012604
459,0.011319
460,0.012812
461,0.012777
462,0.01151
463,0.012588
464,0.012569
465,0.011453
466,0.0127
467,0.012726
468,0.007075
469,0.012624
470,0.012614
471,0.011428
472,0.01273
473,0.012731
474,0.011526
475,0.012575
476,0.01257
477,0.011453
478,0.012649
479,0.012731
480,0.011663
481,0.012649
482,0.012597
483,0.011397
484,0.012553
485,0.012644
486,0.011536
487,0.012628
488,0.012583
489,0.011474
490,0.012612
491,0.012673
492,0.01167
493,0.00828
494,0.012582
495,0.011391
496,0.012557
497,0.012568
498,0.011519
499,0.012759
0,0.012798
1,0.020668
2,0.00823
3,0.01238
4,0.010824
5,0.007814
6,0.010703
7,0.001895
8,0.009721
9,0.008133
0,0.006153
1,0.0116
2,0.010613
3,0.012662
4,0.006622
5,0.010896
6,0.012351
7,0.010692
8,0.010595
9,0.012678
10,0.010744
11,0.01073
12,0.012438
13,0.006435
14,0.011655
15,0.012665
16,0.010714
17,0.00822
18,0.012227
19,0.009549
0,0.013386
1,0.011686
2,0.008239
3,0.005043
4,0.009698
5,0.01511
6,0.012679
7,0.012562
8,0.008554
9,0.014639
10,0.014972
11,0.012403
12,0.008127
13,0.016336
14,0.010233
15,0.012523
16,0.00727
17,0.010663
18,0.009714
19,0.011637
0,0.006878
1,0.009927
2,0.012593
3,0.010493
4,0.012632
5,0.014978
6,0.010817
7,0.003413
8,0.014464
9,0.011678
10,0.010475
11,0.012215
12,0.0135
13,0.010445
14,0.013553
15,0.009522
16,0.012347
17,0.009741
18,0.011485
19,0.012274
20,0.008309
21,0.013507
22,0.012751
23,0.014014
24,0.010349
25,0.009221
26,0.008092
27,0.007532
28,0.00238
29,0.020985
30,0.012581
31,0.013053
32,0.010591
33,0.012284
34,0.005079
35,0.014942
36,0.01631
37,0.012795
38,0.011095
39,0.012876
40,0.008662
41,0.004232
42,0.011482
43,0.010289
44,0.010104
45,0.009416
46,0.015464
47,0.010642
48,0.006104
49,0.012981
0,0.042258
1,0.033091
2,0.02183
3,0.033959
4,0.012561
5,0.01875
6,0.001859
7,0.005492
8,0.029289
9,0.025234
10,0.016595
11,0.02629
12,0.019286
13,0.037723
14,0.032905
15,0.025462
16,0.030855
17,0.017388
18,0.019574
19,0.016652
20,0.030604
21,0.023343
22,0.033402
23,0.03073
24,0.015988
25,0.025376
26,0.023543
27,0.022176
28,0.014092
29,0.030648
30,0.028104
31,0.016841
32,0.023627
33,0.01078
34,0.026483
35,0.015809
36,0.025193
37,0.02496
38,0.021529
39,0.014587
40,0.011447
41,0.026335
42,0.023646
43,0.024389
44,0.021776
45,0.021456
46,0.039497
47,0.025038
48,0.002332
49,0.030883
50,0.023451
51,0.022979
52,0.020778
53,0.023723
54,0.009565
55,0.029554
56,0.02721
57,0.014453
58,0.018381
59,0.035404
60,0.030457
61,0.029203
62,0.009227
63,0.023385
64,0.015928
65,0.019577
66,0.020066
67,0.022233
68,0.013313
69,0.021371
70,0.025732
71,0.029758
72,0.012293
73,0.01531
74,0.024603
75,0.015259
76,0.021122
77,0.010943
78,0.027019
79,0.025631
80,0.028106
81,0.003639
82,0.037626
83,0.013172
84,0.019335
85,0.014806
86,0.018244
87,0.015489
88,0.025988
89,0.016081
90,0.033231
91,0.018701
92,0.02783
93,0.019347
94,0.025051
95,0.025771
96,0.015585
97,0.014973
98,0.025389
99,0.018869
100,0.030572
101,0.014749
102,0.01476
103,0.005092
104,0.026241
105,0.009249
106,0.025047
107,0.013309
108,0.034548
109,0.030546
110,0.032138
111,0.027509
112,0.024146
113,0.023943
114,0.012845
115,0.01642
116,0.023967
117,0.024027
118,0.022401
119,0.031655
120,0.020008
121,0.026433
122,0.033727
123,0.030427
124,0.025293
125,0.017597
126,0.016004
127,0.031062
128,0.015477
129,0.025191
130,0.010585
131,0.008209
132,0.0196
133,0.009461
134,0.010927
135,0.024536
136,0.017573
137,0.015364
138,0.018201
139,0.020598
140,0.02682
141,0.025129
142,0.024022
143,0.023818
144,0.015308
145,0.026221
146,0.02201
147,0.023613
148,0.018698
149,0.030604
150,0.014055
151,0.028391
152,0.009386
153,0.01796
154,0.011674
155,0.023703
156,0.029682
157,0.030362
158,0.010121
159,0.00963
160,0.015459
161,0.032685
162,0.012703
163,0.035255
164,0.020138
165,0.024233
166,0.020349
167,0.012448
168,0.024408
169,0.014516
170,0.035004
171,0.028697
172,0.010606
173,0.021784
174,0.010622
175,0.027761
176,0.032127
177,0.022541
178,0.024934
179,0.01136
180,0.014901
181,0.006958
182,0.034611
183,0.00221
184,0.01562
185,0.013737
186,0.02146
187,0.023318
188,0.00871
189,0.032395
190,0.017913
191,0.009415
192,0.025299
193,0.027884
194,0.029647
195,0.015057
196,0.031062
197,0.02509
198,0.020706
199,0.010955
200,0.017315
201,0.025187
202,0.008338
203,0.021529
204,0.028263
205,0.031877
206,0.032521
207,0.016194
208,0.014655
209,0.029527
210,0.012189
211,0.03197
212,0.027138
213,0.008655
214,0.0259
215,0.025675
216,0.010456
217,0.029702
218,0.009987
219,0.026549
220,0.01495
221,0.024712
222,0.015581
223,0.002639
224,0.029272
225,0.017062
226,0.019904
227,0.020525
228,0.024758
229,0.024938
230,0.010352
231,0.024963
232,0.013864
233,0.019181
234,0.018096
235,0.027963
236,0.009627
237,0.006427
238,0.012799
239,0.021455
240,0.014479
241,0.028484
242,0.018983
243,0.031205
244,0.008756
245,0.026834
246,0.018313
247,0.029196
248,0.027708
249,0.021303
0,0.012524
1,0.014221
2,0.009428
3,0.009655
4,0.011836
5,0.014852
6,0.01041
7,0.010752
8,0.008805
9,0.009701
10,0.014742
11,0.005727
12,0.00694
13,0.010418
14,0.004208
15,0.010151
16,0.005195
17,0.010308
18,0.009281
19,0.009485
20,0.009689
21,0.011164
22,0.017713
23,0.003308
24,0.006337
25,0.003471
26,0.011643
27,0.011469
28,0.011419
29,0.010497
30,0.008458
31,0.008701
32,0.01264
33,0.007895
34,0.009336
35,0.0119
36,0.011358
37,0.009351
38,0.008315
39,0.003877
40,0.015422
41,0.00733
42,0.012806
43,0.009987
44,0.010499
45,0.00936
46,0.011951
47,0.00407
48,0.01508
49,0.009186
50,0.009612
51,0.009401
52,0.015815
53,0.008089
54,0.008039
55,0.006407
56,0.013485
57,0.012366
58,0.016468
59,0.018869
60,0.016374
61,0.011411
62,0.01162
63,0.016345
64,0.010194
65,0.013244
66,0.010653
67,0.010631
68,0.011433
69,0.005772
70,0.008806
71,0.021094
72,0.016406
73,0.007556
74,0.010263
75,0.012452
76,0.007705
77,0.01045
78,0.005172
79,0.010855
80,0.00803
81,0.009931
82,0.012301
83,0.010363
84,0.005652
85,0.006361
86,0.009363
87,0.003486
88,0.007481
89,0.012869
90,0.005472
91,0.00343
92,0.021519
93,0.010586
94,0.007549
95,0.009398
96,0.009034
97,0.004396
98,0.01373
99,0.007329
100,0.011618
101,0.009114
102,0.005859
103,0.009626
104,0.010685
105,0.005949
106,0.011284
107,0.013333
108,0.00933
109,0.003283
110,0.011575
111,0.007913
112,0.008481
113,0.006545
114,0.003469
115,0.010577
116,0.011336
117,0.017496
118,0.013742
119,0.006791
120,0.012758
121,0.006475
122,0.008213
123,0.00603
124,0.010959
125,0.010879
126,0.006149
127,0.010362
128,0.009439
129,0.010597
130,0.013076
131,0.009821
132,0.006631
133,0.008188
134,0.010722
135,0.00337
136,0.004871
137,0.002051
138,0.009677
139,0.009553
140,0.010972
141,0.008185
142,0.009831
143,0.006795
144,0.013676
145,0.011614
146,0.008747
147,0.012481
148,0.009731
149,0.01159
150,0.012766
151,0.011855
152,0.008173
153,0.009248
154,0.008652
155,0.009176
156,0.009591
157,0.003413
158,0.013949
159,0.022766
160,0.006618
161,0.012493
162,0.002609
163,0.01879
164,0.0082
165,0.005677
166,0.004796
167,0.0085
168,0.002046
169,0.013509
170,0.008582
171,0.009223
172,0.010623
173,0.009297
174,0.012448
175,0.008094
176,0.002047
177,0.011608
178,0.004338
179,0.013929
180,0.010704
181,0.01045
182,0.009116
183,0.003411
184,0.012191
185,0.005285
186,0.014135
187,0.01348
188,0.007745
189,0.011639
190,0.010447
191,0.009255
192,0.009635
193,0.011833
194,0.010722
195,0.010392
196,0.003688
197,0.009892
198,0.009575
199,0.014344
200,0.004716
201,0.009026
202,0.011293
203,0.010329
204,0.009664
205,0.011889
206,0.009252
207,0.003113
208,0.011485
209,0.018999
210,0.010458
211,0.002141
212,0.009329
213,0.008938
214,0.007143
215,0.008929
216,0.010725
217,0.014601
218,0.006326
219,0.012025
220,0.010983
221,0.014535
222,0.009653
223,0.008168
224,0.009809
225,0.018044
226,0.009802
227,0.008944
228,0.012395
229,0.010595
230,0.004277
231,0.011403
232,0.009439
233,0.012621
234,0.008908
235,0.012566
236,0.003363
237,0.007689
238,0.007408
239,0.015346
240,0.011468
241,0.010344
242,0.005231
243,0.006925
244,0.008698
245,0.010445
246,0.010718
247,0.008727
248,0.011665
249,0.004034
0,0.017099
1,0.010383
2,0.012615
3,0.007949
4,0.010458
5,0.006231
6,0.014895
7,0.014926
8,0.004577
9,0.011132
10,0.010191
11,0.008202
12,0.009384
13,0.011197
14,0.009628
15,0.004378
16,0.016856
17,0.012492
18,0.011596
19,0.005482
20,0.009366
21,0.005449
22,0.014927
23,0.003469
24,0.014054
25,0.00631
26,0.007441
27,0.006914
28,0.010536
29,0.009533
30,0.009793
31,0.009541
32,0.021223
33,0.008484
34,0.004555
35,0.021227
36,0.009518
37,0.010634
38,0.010575
39,0.012581
40,0.005667
41,0.013566
42,0.004571
43,0.010693
44,0.00802
45,0.010596
46,0.014906
47,0.01015
48,0.014771
49,0.011824
50,0.011395
51,0.010396
52,0.009201
53,0.010476
54,0.01373
55,0.010266
56,0.010128
57,0.011031
58,0.015959
59,0.010784
60,0.013723
61,0.014401
62,0.008898
63,0.011356
64,0.009532
65,0.011074
66,0.009927
67,0.008924
68,0.011215
69,0.009327
70,0.008567
71,0.00579
72,0.018134
73,0.015379
74,0.013755
75,0.011214
76,0.012478
77,0.003578
78,0.01031
79,0.011371
80,0.015197
81,0.017228
82,0.016298
83,0.011615
84,0.002466
85,0.010747
86,0.00795
87,0.009606
88,0.008077
89,0.007128
90,0.004353
91,0.016214
92,0.015997
93,0.008196
94,0.010565
95,0.010254
96,0.008144
97,0.008018
98,0.003956
99,0.010492
100,0.010277
101,0.010381
102,0.013462
103,0.008929
104,0.010105
105,0.012345
106,0.011435
107,0.005105
108,0.00943
109,0.003602
110,0.007266
111,0.015328
112,0.013899
113,0.012612
114,0.008258
115,0.008828
116,0.013867
117,0.012913
118,0.009093
119,0.011349
120,0.005391
121,0.003403
122,0.010812
123,0.002297
124,0.014977
125,0.009465
126,0.0153
127,0.013446
128,0.01071
129,0.010582
130,0.01328
131,0.009467
132,0.005854
133,0.009948
134,0.012661
135,0.010959
136,0.008825
137,0.012289
138,0.008233
139,0.010461
140,0.012591
141,0.011914
142,0.01
143,0.00746
144,0.012674
145,0.007944
146,0.009427
147,0.009785
148,0.010309
149,0.004472
150,0.013766
151,0.014942
152,0.009561
153,0.01239
154,0.009254
155,0.01511
156,0.012686
157,0.00575
158,0.007412
159,0.013554
160,0.003125
161,0.012196
162,0.009423
163,0.009616
164,0.008426
165,0.003256
166,0.011237
167,0.00906
168,0.011629
169,0.009222
170,0.009715
171,0.014979
172,0.007768
173,0.012864
174,0.01475
175,0.010885
176,0.014993
177,0.013907
178,0.010786
179,0.010739
180,0.005202
181,0.009141
182,0.008217
183,0.008462
184,0.015204
185,0.015421
186,0.015305
187,0.014876
188,0.010573
189,0.009493
190,0.004397
191,0.012782
192,0.005432
193,0.008241
194,0.00922
195,0.021488
196,0.009956
197,0.010306
198,0.008544
199,0.009521
200,0.003344
201,0.007917
202,0.00873
203,0.007887
204,0.002244
205,0.010014
206,0.015049
207,0.008283
208,0.012543
209,0.006917
210,0.007891
211,0.008475
212,0.013112
213,0.014486
214,0.010785
215,0.022571
216,0.008886
217,0.007013
218,0.010588
219,0.008576
220,0.009867
221,0.008799
222,0.01257
223,0.00616
224,0.010029
225,0.01317
226,0.012753
227,0.007552
228,0.014503
229,0.013754
230,0.013783
231,0.008539
232,0.00819
233,0.010898
234,0.002701
235,0.014637
236,0.010778
237,0.009421
238,0.006412
239,0.009183
240,0.009598
241,0.003182
242,0.010945
243,0.011146
244,0.006491
245,0.010505
246,0.01511
247,0.007844
248,0.009572
249,0.002498
250,0.005876
251,0.015227
252,0.00918
253,0.01177
254,0.008649
255,0.009246
256,0.010958
257,0.012675
258,0.008765
259,0.00856
260,0.015097
261,0.01054
262,0.015148
263,0.012779
264,0.006394
265,0.009772
266,0.006469
267,0.009805
268,0.009668
269,0.011195
270,0.006338
271,0.011186
272,0.004455
273,0.008682
274,0.003244
275,0.015021
276,0.012557
277,0.012739
278,0.012763
279,0.010368
280,0.012844
281,0.015071
282,0.006133
283,0.012849
284,0.005332
285,0.007932
286,0.011764
287,0.009584
288,0.010296
289,0.009034
290,0.009507
291,0.012808
292,0.012977
293,0.010553
294,0.013312
295,0.00399
296,0.012685
297,0.00859
298,0.005476
299,0.010659
300,0.014731
301,0.009516
302,0.003151
303,0.008233
304,0.013969
305,0.012951
306,0.011227
307,0.011569
308,0.009545
309,0.010331
310,0.009408
311,0.012773
312,0.012935
313,0.005548
314,0.006155
315,0.011561
316,0.0115
317,0.011459
318,0.010533
319,0.01157
320,0.012624
321,0.012867
322,0.002327
323,0.021291
324,0.009372
325,0.008376
326,0.012667
327,0.003393
328,0.010687
329,0.006431
330,0.00638
331,0.002476
332,0.012977
333,0.010504
334,0.011604
335,0.008512
336,0.005649
337,0.011615
338,0.010887
339,0.011928
340,0.006796
341,0.012658
342,0.00998
343,0.013958
344,0.004072
345,0.012901
346,0.002624
347,0.014206
348,0.013478
349,0.003542
350,0.006816
351,0.011079
352,0.008946
353,0.012648
354,0.006713
355,0.006471
356,0.007396
357,0.00855
358,0.005323
359,0.012557
360,0.009686
361,0.009669
362,0.011874
363,0.003448
364,0.019299
365,0.012035
366,0.012549
367,0.00852
368,0.003309
369,0.008745
370,0.008603
371,0.008719
372,0.01001
373,0.003919
374,0.008654
375,0.010972
376,0.002304
377,0.016474
378,0.011265
379,0.0095
380,0.012514
381,0.01034
382,0.006397
383,0.011819
384,0.012582
385,0.009373
386,0.012576
387,0.006519
388,0.008842
389,0.01138
390,0.007865
391,0.011772
392,0.009615
393,0.009312
394,0.003391
395,0.012288
396,0.010818
397,0.011163
398,0.00435
399,0.014503
400,0.009382
401,0.006369
402,0.011798
403,0.008557
404,0.012751
405,0.015054
406,0.009018
407,0.008807
408,0.018943
409,0.008097
410,0.004623
411,0.008966
412,0.013077
413,0.007009
414,0.012668
415,0.012724
416,0.010015
417,0.009424
418,0.01093
419,0.01019
420,0.006124
421,0.022372
422,0.00972
423,0.008745
424,0.00634
425,0.009623
426,0.012568
427,0.008092
428,0.012703
429,0.010566
430,0.003225
431,0.007777
432,0.005718
433,0.011378
434,0.012724
435,0.00919
436,0.010917
437,0.006527
438,0.004453
439,0.008525
440,0.009801
441,0.012773
442,0.00925
443,0.009663
444,0.003841
445,0.011893
446,0.009923
447,0.014015
448,0.009502
449,0.010749
0,0.014745
1,0.026988
2,0.027669
3,0.016304
4,0.009755
5,0.007965
6,0.007743
7,0.009303
8,0.007813
9,0.006568
10,0.009367
11,0.009432
12,0.007859
13,0.007654
14,0.007636
15,0.007711
16,0.008433
17,0.007877
18,0.007846
19,0.007658
20,0.007931
21,0.008035
22,0.007666
23,0.008888
24,0.008549
25,0.008855
26,0.006218
27,0.008574
28,0.009238
29,0.008714
30,0.008468
31,0.008654
32,0.00939
33,0.008147
34,0.008813
35,0.009311
36,0.009562
37,0.010476
38,0.007472
39,0.007297
40,0.009675
41,0.006935
42,0.007808
43,0.009566
44,0.009722
45,0.010902
46,0.010197
47,0.013541
48,0.009597
49,0.011752
50,0.008983
51,0.007078
52,0.006998
53,0.00721
54,0.009277
55,0.009379
56,0.009676
57,0.008288
58,0.008077
59,0.007181
60,0.007254
61,0.009231
62,0.012801
63,0.011119
64,0.01002
65,0.011322
66,0.009471
67,0.009328
68,0.008163
69,0.006636
70,0.007577
71,0.009145
72,0.009284
73,0.009584
74,0.012928
75,0.0095
76,0.010921
77,0.012049
78,0.007667
79,0.007678
80,0.008015
81,0.008584
82,0.010302
83,0.007193
84,0.008554
85,0.007975
86,0.00963
87,0.007252
88,0.008124
89,0.008536
90,0.008884
91,0.00938
92,0.010846
93,0.010087
94,0.009154
95,0.009432
96,0.007514
97,0.0076
98,0.007347
99,0.009259
100,0.007713
101,0.009552
102,0.009663
103,0.007739
104,0.007682
105,0.007708
106,0.0079
107,0.007878
108,0.007214
109,0.008956
110,0.009365
111,0.010593
112,0.01396
113,0.012887
114,0.012668
115,0.008867
116,0.008493
117,0.006734
118,0.007362
119,0.010885
120,0.009125
121,0.007186
122,0.007566
123,0.006428
124,0.007765
125,0.010105
126,0.008752
127,0.006804
128,0.006982
129,0.007883
130,0.007554
131,0.007478
132,0.007166
133,0.006896
134,0.007007
135,0.007462
136,0.007565
137,0.006903
138,0.007865
139,0.006895
140,0.009102
141,0.011002
142,0.007954
143,0.007157
144,0.00692
145,0.0067
146,0.007747
147,0.008569
148,0.006812
149,0.008344
150,0.009209
151,0.006786
152,0.007257
153,0.007057
154,0.007842
155,0.007075
156,0.007825
157,0.006858
158,0.007679
159,0.007211
160,0.007984
161,0.00967
162,0.008934
163,0.009261
164,0.008881
165,0.006878
166,0.015465
167,0.007401
168,0.007867
169,0.007656
170,0.007172
171,0.007294
172,0.00765
173,0.011026
174,0.008356
175,0.008517
176,0.009121
177,0.008445
178,0.006407
179,0.009238
180,0.010303
181,0.010555
182,0.009327
183,0.008776
184,0.00884
185,0.00741
186,0.007381
187,0.008507
188,0.007684
189,0.006739
190,0.008524
191,0.008428
192,0.006979
193,0.007718
194,0.010249
195,0.009396
196,0.007385
197,0.007835
198,0.008005
199,0.008851
200,0.008651
201,0.010088
202,0.01111
203,0.008156
204,0.008359
205,0.01107
206,0.009845
207,0.009964
208,0.010699
209,0.010219
210,0.010778
211,0.008581
212,0.008307
213,0.008541
214,0.007816
215,0.007214
216,0.008037
217,0.009641
218,0.007116
219,0.006646
220,0.011522
221,0.007771
222,0.006654
223,0.008242
224,0.010061
225,0.008542
226,0.008126
227,0.011263
228,0.013009
229,0.014196
230,0.008824
231,0.008332
232,0.012293
233,0.008904
234,0.008679
235,0.008522
236,0.008575
237,0.007663
238,0.008043
239,0.008294
240,0.009375
241,0.009511
242,0.006988
243,0.008038
244,0.01145
245,0.009734
246,0.009619
247,0.011031
248,0.010699
249,0.0102
250,0.010893
251,0.010339
252,0.007247
253,0.007489
254,0.009004
255,0.009728
256,0.00744
257,0.008849
258,0.007214
259,0.007695
260,0.008577
261,0.009702
262,0.009822
263,0.00901
264,0.007664
265,0.006984
266,0.007164
267,0.012296
268,0.01
269,0.009365
270,0.009311
271,0.010717
272,0.011895
273,0.015392
274,0.013423
275,0.013072
276,0.011679
277,0.010427
278,0.008344
279,0.009151
280,0.009092
281,0.009021
282,0.007182
283,0.007684
284,0.01177
285,0.007705
286,0.009634
287,0.007929
288,0.007189
289,0.006546
290,0.007717
291,0.012967
292,0.009311
293,0.008747
294,0.009856
295,0.008494
296,0.007305
297,0.008652
298,0.010558
299,0.007379
300,0.01212
301,0.014102
302,0.015401
303,0.012599
304,0.010978
305,0.00821
306,0.007566
307,0.009158
308,0.01103
309,0.010041
310,0.010437
311,0.014819
312,0.009505
313,0.013857
314,0.009809
315,0.012899
316,0.008755
317,0.011102
318,0.010612
319,0.009781
320,0.015941
321,0.014496
322,0.010643
323,0.00829
324,0.008041
325,0.007047
326,0.007576
327,0.007821
328,0.008849
329,0.0071
330,0.007303
331,0.00907
332,0.007318
333,0.011667
334,0.008864
335,0.00654
336,0.007428
337,0.007046
338,0.007682
339,0.007593
340,0.007622
341,0.008313
342,0.009027
343,0.009571
344,0.008174
345,0.012683
346,0.0079
347,0.011092
348,0.012465
349,0.008087
350,0.008704
351,0.006939
352,0.007948
353,0.007636
354,0.007347
355,0.012069
356,0.011375
357,0.012453
358,0.01838
359,0.008747
360,0.008176
361,0.010168
362,0.008945
363,0.008566
364,0.007291
365,0.009093
366,0.009849
367,0.008912
368,0.009029
369,0.008631
370,0.008178
371,0.008967
372,0.011051
373,0.010778
374,0.010636
375,0.008177
376,0.006863
377,0.007238
378,0.009984
379,0.009162
380,0.007282
381,0.007851
382,0.01689
383,0.010905
384,0.01099
385,0.009715
386,0.009833
387,0.009194
388,0.007249
389,0.007206
390,0.007831
391,0.007564
392,0.008023
393,0.010924
394,0.01181
395,0.010277
396,0.013287
397,0.006304
398,0.010432
399,0.008863
400,0.008964
401,0.010079
402,0.009329
403,0.00763
404,0.008081
405,0.006718
406,0.008365
407,0.006748
408,0.009095
409,0.010289
410,0.00891
411,0.005459
412,0.008899
413,0.010058
414,0.00889
415,0.007704
416,0.007871
417,0.008446
418,0.00965
419,0.010286
420,0.008981
421,0.010261
422,0.014409
423,0.00713
424,0.008854
425,0.009093
426,0.009726
427,0.008476
428,0.008244
429,0.010382
430,0.020128
431,0.007722
432,0.009753
433,0.009118
434,0.007665
435,0.008313
436,0.008263
437,0.009514
438,0.008433
439,0.006704
440,0.008232
441,0.008202
442,0.007814
443,0.007502
444,0.010335
445,0.015187
446,0.009176
447,0.00728
448,0.006941
449,0.007277
450,0.010433
451,0.007634
452,0.007743
453,0.007606
454,0.008933
455,0.009965
456,0.008383
457,0.005867
458,0.006799
459,0.009417
460,0.010767
461,0.011679
462,0.009853
463,0.007027
464,0.007573
465,0.008026
466,0.015102
467,0.014245
468,0.01324
469,0.008192
470,0.009732
471,0.010114
472,0.00954
473,0.009678
474,0.008868
475,0.00796
476,0.008228
477,0.008398
478,0.00843
479,0.00698
480,0.006703
481,0.007258
482,0.008887
483,0.005945
484,0.006515
485,0.009656
486,0.010054
487,0.007423
488,0.006762
489,0.008113
490,0.010804
491,0.006447
492,0.009413
493,0.008452
494,0.007513
495,0.008378
496,0.00815
497,0.007928
498,0.007594
499,0.007534
500,0.009583
501,0.006711
502,0.007466
503,0.007346
504,0.008982
505,0.009578
506,0.00841
507,0.008507
508,0.010824
509,0.007013
510,0.00801
511,0.005523
512,0.009668
513,0.007556
514,0.007339
515,0.007432
516,0.009295
517,0.008482
518,0.007187
519,0.007534
520,0.008436
521,0.007604
522,0.007798
523,0.008068
524,0.00765
525,0.008768
526,0.009602
527,0.010297
528,0.009868
529,0.009661
530,0.0094
531,0.009132
532,0.005307
533,0.007213
534,0.00714
535,0.008621
536,0.010678
537,0.012445
538,0.010884
539,0.010359
540,0.007438
541,0.007474
542,0.009345
543,0.011562
544,0.010552
545,0.014342
546,0.010185
547,0.008729
548,0.010573
549,0.009316
550,0.010089
551,0.008974
552,0.007314
553,0.007457
554,0.007237
555,0.009098
556,0.013181
557,0.008924
558,0.008024
559,0.008246
560,0.004759
561,0.008902
562,0.00897
563,0.008988
564,0.006684
565,0.00722
566,0.007684
567,0.009268
568,0.008709
569,0.010981
570,0.00835
571,0.007546
572,0.007165
573,0.009302
574,0.009171
575,0.008289
576,0.011196
577,0.009684
578,0.008898
579,0.007494
580,0.007941
581,0.006757
582,0.007523
583,0.008814
584,0.00847
585,0.006986
586,0.008231
587,0.011777
588,0.010606
589,0.00993
590,0.006839
591,0.00675
592,0.008378
593,0.008081
594,0.008126
595,0.007462
596,0.007358
597,0.007869
598,0.011071
599,0.008734
600,0.009955
601,0.007249
602,0.006616
603,0.008543
604,0.008638
605,0.010224
606,0.007004
607,0.006951
608,0.008345
609,0.011156
610,0.009468
611,0.008165
612,0.008274
613,0.010279
614,0.009201
615,0.008649
616,0.008586
617,0.008729
618,0.007604
619,0.007299
620,0.00716
621,0.007991
622,0.01008
623,0.008157
624,0.005804
625,0.008207
626,0.007301
627,0.008675
628,0.00983
629,0.010188
630,0.009106
631,0.011631
632,0.012804
633,0.010741
634,0.009446
635,0.009073
636,0.011577
637,0.014556
638,0.007886
639,0.007269
640,0.00691
641,0.007688
642,0.009014
643,0.007649
644,0.007767
645,0.007896
646,0.010357
647,0.00937
648,0.005999
649,0.006179
650,0.007286
651,0.007174
652,0.007484
653,0.009074
654,0.00771
655,0.009207
656,0.006966
657,0.006751
658,0.007827
659,0.008671
660,0.007731
661,0.006586
662,0.00841
663,0.012833
664,0.009109
665,0.011375
666,0.009451
667,0.00962
668,0.007003
669,0.007104
670,0.008212
671,0.008494
672,0.009026
673,0.00814
674,0.007884
675,0.010405
676,0.011325
677,0.009029
678,0.008423
679,0.007875
680,0.007992
681,0.008681
682,0.00774
683,0.009338
684,0.008572
685,0.009029
686,0.009215
687,0.005622
688,0.010913
689,0.010421
690,0.010788
691,0.009721
692,0.009289
693,0.00901
694,0.009627
695,0.007208
696,0.010381
697,0.015494
698,0.011512
699,0.00726
700,0.011066
701,0.009785
702,0.0094
703,0.007014
704,0.007392
705,0.008079
706,0.008253
707,0.009549
708,0.013986
709,0.014695
710,0.013262
711,0.012452
712,0.012274
713,0.010066
714,0.00962
715,0.009294
716,0.008359
717,0.009644
718,0.0072
719,0.007544
720,0.009531
721,0.00686
722,0.006567
723,0.00822
724,0.013139
725,0.010003
726,0.007709
727,0.008213
728,0.008233
729,0.007557
730,0.008741
731,0.007401
732,0.007792
733,0.007576
734,0.006457
735,0.012556
736,0.007536
737,0.007198
738,0.01004
739,0.011526
740,0.009998
741,0.00695
742,0.006677
743,0.010174
744,0.008335
745,0.008444
746,0.009195
747,0.008003
748,0.008198
749,0.007346
750,0.008075
751,0.008251
752,0.00741
753,0.00675
754,0.011107
755,0.010743
756,0.010334
757,0.011927
758,0.008955
759,0.012026
760,0.014887
761,0.010853
762,0.010384
763,0.009465
764,0.008871
765,0.012398
766,0.011236
767,0.014561
768,0.014135
769,0.008873
770,0.008131
771,0.008782
772,0.010386
773,0.008758
774,0.008635
775,0.007859
776,0.006968
777,0.007275
778,0.007669
779,0.010871
780,0.011022
781,0.008553
782,0.008968
783,0.010742
784,0.006709
785,0.007219
786,0.008424
787,0.009641
788,0.009005
789,0.007017
790,0.008142
791,0.009349
792,0.015987
793,0.010046
794,0.006914
795,0.00711
796,0.008183
797,0.011079
798,0.009675
799,0.010206
800,0.009218
801,0.009597
802,0.008766
803,0.00776
804,0.007043
805,0.00818
806,0.01379
807,0.00575
808,0.008882
809,0.008637
810,0.008447
811,0.009156
812,0.014805
813,0.014535
814,0.014749
815,0.009666
816,0.008223
817,0.006587
818,0.007769
819,0.012613
820,0.010164
821,0.007983
822,0.008317
823,0.007873
824,0.008947
825,0.009403
826,0.008208
827,0.007803
828,0.007195
829,0.006874
830,0.009799
831,0.00904
832,0.012234
833,0.008695
834,0.007306
835,0.007769
836,0.007592
837,0.007621
838,0.007515
839,0.00699
840,0.007312
841,0.006811
842,0.007335
843,0.007732
844,0.010064
845,0.008665
846,0.007574
847,0.007627
848,0.007395
849,0.008398
850,0.008886
851,0.010102
852,0.009284
853,0.008252
854,0.010669
855,0.009986
856,0.00969
857,0.010366
858,0.006902
859,0.007851
860,0.008602
861,0.009061
862,0.007048
863,0.006878
864,0.007382
865,0.008983
866,0.012385
867,0.011078
868,0.00683
869,0.006157
870,0.007421
871,0.008335
872,0.011145
873,0.010442
874,0.011556
875,0.011203
876,0.00834
877,0.006517
878,0.007621
879,0.011303
880,0.007763
881,0.007197
882,0.006581
883,0.009679
884,0.006683
885,0.007249
886,0.008705
887,0.007497
888,0.007103
889,0.007122
890,0.00818
891,0.007766
892,0.007412
893,0.007113
894,0.00704
895,0.007038
896,0.00765
897,0.011601
898,0.014458
899,0.010652
900,0.007257
901,0.007466
902,0.007271
903,0.007119
904,0.007055
905,0.007397
906,0.00749
907,0.008201
908,0.011892
909,0.008556
910,0.008777
911,0.007961
912,0.006735
913,0.007696
914,0.009265
915,0.010406
916,0.008901
917,0.008563
918,0.008287
919,0.008014
920,0.007313
921,0.007133
922,0.006929
923,0.00934
924,0.007588
925,0.007713
926,0.010672
927,0.009968
928,0.008826
929,0.007179
930,0.007254
931,0.008024
932,0.006984
933,0.007909
934,0.008504
935,0.007503
936,0.010514
937,0.013597
938,0.010713
939,0.007159
940,0.007526
941,0.009949
942,0.008079
943,0.009706
944,0.009205
945,0.006885
946,0.007897
947,0.006734
948,0.006828
949,0.009575
950,0.010348
951,0.007473
952,0.008656
953,0.007076
954,0.006921
955,0.007297
956,0.009952
957,0.012772
958,0.009872
959,0.008761
960,0.007116
961,0.006713
962,0.007875
963,0.00845
964,0.010936
965,0.00941
966,0.007713
967,0.007299
968,0.007018
969,0.006937
970,0.007488
971,0.007594
972,0.007236
973,0.007156
974,0.007718
975,0.009662
976,0.014776
977,0.010958
978,0.006958
979,0.007184
980,0.00788
981,0.009019
982,0.009197
983,0.008869
984,0.008893
985,0.009863
986,0.008108
987,0.006627
988,0.007713
989,0.008328
990,0.00707
991,0.007557
992,0.009416
993,0.011153
994,0.007582
995,0.007198
996,0.007308
997,0.00879
998,0.01061
999,0.009459
1000,0.011217
1001,0.011373
1002,0.009956
1003,0.009668
1004,0.008685
1005,0.007509
1006,0.007185
1007,0.006725
1008,0.00733
1009,0.008926
1010,0.008246
1011,0.009798
1012,0.014313
1013,0.010213
1014,0.008152
1015,0.007201
1016,0.008553
1017,0.009671
1018,0.010151
1019,0.009862
1020,0.009221
1021,0.008399
1022,0.006763
1023,0.006946
1024,0.008226
1025,0.007828
1026,0.007674
1027,0.007031
1028,0.008738
1029,0.007907
1030,0.009449
1031,0.009088
1032,0.007997
1033,0.007407
1034,0.009161
1035,0.008062
1036,0.007843
1037,0.007397
1038,0.00781
1039,0.008925
1040,0.007809
1041,0.010006
1042,0.01533
1043,0.005993
1044,0.008514
1045,0.007637
1046,0.007975
1047,0.007472
1048,0.007616
1049,0.007774
1050,0.009116
1051,0.009365
1052,0.009436
1053,0.005397
1054,0.00929
1055,0.014758
1056,0.008292
1057,0.009235
1058,0.009439
1059,0.011044
1060,0.011015
1061,0.009684
1062,0.008169
1063,0.007986
1064,0.008856
1065,0.008922
1066,0.008807
1067,0.008516
1068,0.00711
1069,0.009515
1070,0.009596
1071,0.010216
1072,0.006906
1073,0.006807
1074,0.007515
1075,0.00773
1076,0.01054
1077,0.009246
1078,0.007106
1079,0.007652
1080,0.007603
1081,0.010413
1082,0.009016
1083,0.014519
1084,0.013195
1085,0.009022
1086,0.013092
1087,0.016345
1088,0.011278
1089,0.007212
1090,0.005284
1091,0.006161
1092,0.006392
1093,0.007027
1094,0.010459
1095,0.008564
1096,0.007698
1097,0.007753
1098,0.00832
1099,0.007537
1100,0.00817
1101,0.008462
1102,0.007322
1103,0.006768
1104,0.00773
1105,0.007058
1106,0.007169
1107,0.008816
1108,0.009631
1109,0.010768
1110,0.010229
1111,0.010051
1112,0.010162
1113,0.010328
1114,0.008567
1115,0.008719
1116,0.008663
1117,0.00914
1118,0.009053
1119,0.007184
1120,0.007609
1121,0.009268
1122,0.009954
1123,0.007334
1124,0.007184
1125,0.006975
1126,0.007415
1127,0.00884
1128,0.009206
1129,0.008438
1130,0.008595
1131,0.010156
1132,0.01411
1133,0.014086
1134,0.008473
1135,0.007158
1136,0.007063
1137,0.008029
1138,0.008301
1139,0.00891
1140,0.008609
1141,0.008529
1142,0.008502
1143,0.009533
1144,0.010611
1145,0.009381
1146,0.011136
1147,0.010384
1148,0.011
1149,0.009377
1150,0.010045
1151,0.009869
1152,0.016313
1153,0.014442
1154,0.012736
1155,0.012958
1156,0.013598
1157,0.011397
1158,0.010802
1159,0.010001
1160,0.009692
1161,0.010164
1162,0.009325
1163,0.010823
1164,0.011386
1165,0.009054
1166,0.006851
1167,0.007865
1168,0.007621
1169,0.007634
1170,0.007578
1171,0.007624
1172,0.008865
1173,0.009941
1174,0.009673
1175,0.007296
1176,0.008703
1177,0.02432
1178,0.013678
1179,0.009732
1180,0.008728
1181,0.006956
1182,0.006939
1183,0.008012
1184,0.007382
1185,0.007392
1186,0.01018
1187,0.010351
1188,0.009728
1189,0.009358
1190,0.009503
1191,0.009116
1192,0.009761
1193,0.00988
1194,0.006865
1195,0.00786
1196,0.009836
1197,0.011769
1198,0.010888
1199,0.008844
1200,0.009128
1201,0.007589
1202,0.010173
1203,0.009865
1204,0.010871
1205,0.011899
1206,0.01107
1207,0.010722
1208,0.010029
1209,0.008103
1210,0.007482
1211,0.010091
1212,0.009683
1213,0.007548
1214,0.008746
1215,0.00838
1216,0.00783
1217,0.008976
1218,0.011187
1219,0.009802
1220,0.009581
1221,0.009804
1222,0.008511
1223,0.006983
1224,0.007973
1225,0.00926
1226,0.008139
1227,0.008966
1228,0.009816
1229,0.009895
1230,0.010302
1231,0.010773
1232,0.011805
1233,0.0101
1234,0.009611
1235,0.015116
1236,0.008549
1237,0.008432
1238,0.008838
1239,0.008889
1240,0.008993
1241,0.009114
1242,0.007876
1243,0.008081
1244,0.008409
1245,0.009875
1246,0.010697
1247,0.008933
1248,0.008998
1249,0.010302
